<?xml version="1.0" encoding="UTF-8"?>
<svg xmlns="http://www.w3.org/2000/svg" xmlns:xlink="http://www.w3.org/1999/xlink" width="1175pt" height="585pt" viewBox="0 0 1175 585" version="1.1">
<defs>
<g>
<symbol overflow="visible" id="glyph0-0">
<path style="stroke:none;" d="M 1.203125 0 L 1.203125 -9.140625 L 6.46875 -9.140625 L 6.46875 0 Z M 1.859375 -0.65625 L 5.8125 -0.65625 L 5.8125 -8.484375 L 1.859375 -8.484375 Z M 1.859375 -0.65625 "/>
</symbol>
<symbol overflow="visible" id="glyph0-1">
<path style="stroke:none;" d="M 8.484375 0 L 7.140625 0 L 2.25 -7.59375 L 2.203125 -7.59375 C 2.222656 -7.289062 2.242188 -6.914062 2.265625 -6.46875 C 2.285156 -6.03125 2.296875 -5.578125 2.296875 -5.109375 L 2.296875 0 L 1.234375 0 L 1.234375 -9.140625 L 2.578125 -9.140625 L 7.453125 -1.578125 L 7.5 -1.578125 C 7.488281 -1.710938 7.476562 -1.914062 7.46875 -2.1875 C 7.457031 -2.457031 7.441406 -2.753906 7.421875 -3.078125 C 7.410156 -3.410156 7.40625 -3.710938 7.40625 -3.984375 L 7.40625 -9.140625 L 8.484375 -9.140625 Z M 8.484375 0 "/>
</symbol>
<symbol overflow="visible" id="glyph0-2">
<path style="stroke:none;" d="M 9.21875 -4.578125 C 9.21875 -3.628906 9.054688 -2.800781 8.734375 -2.09375 C 8.410156 -1.394531 7.9375 -0.847656 7.3125 -0.453125 C 6.695312 -0.0664062 5.925781 0.125 5 0.125 C 4.050781 0.125 3.265625 -0.0664062 2.640625 -0.453125 C 2.015625 -0.847656 1.546875 -1.398438 1.234375 -2.109375 C 0.929688 -2.816406 0.78125 -3.644531 0.78125 -4.59375 C 0.78125 -5.53125 0.929688 -6.347656 1.234375 -7.046875 C 1.546875 -7.742188 2.015625 -8.289062 2.640625 -8.6875 C 3.265625 -9.082031 4.054688 -9.28125 5.015625 -9.28125 C 5.929688 -9.28125 6.695312 -9.082031 7.3125 -8.6875 C 7.9375 -8.300781 8.410156 -7.753906 8.734375 -7.046875 C 9.054688 -6.347656 9.21875 -5.523438 9.21875 -4.578125 Z M 2 -4.578125 C 2 -3.429688 2.238281 -2.523438 2.71875 -1.859375 C 3.207031 -1.203125 3.96875 -0.875 5 -0.875 C 6.039062 -0.875 6.800781 -1.203125 7.28125 -1.859375 C 7.757812 -2.523438 8 -3.429688 8 -4.578125 C 8 -5.734375 7.757812 -6.632812 7.28125 -7.28125 C 6.800781 -7.9375 6.046875 -8.265625 5.015625 -8.265625 C 3.984375 -8.265625 3.222656 -7.9375 2.734375 -7.28125 C 2.242188 -6.632812 2 -5.734375 2 -4.578125 Z M 2 -4.578125 "/>
</symbol>
<symbol overflow="visible" id="glyph0-3">
<path style="stroke:none;" d="M 7.671875 -9.140625 L 4.421875 0 L 3.265625 0 L 0 -9.140625 L 1.203125 -9.140625 L 3.265625 -3.28125 C 3.398438 -2.90625 3.515625 -2.550781 3.609375 -2.21875 C 3.703125 -1.894531 3.78125 -1.582031 3.84375 -1.28125 C 3.894531 -1.582031 3.96875 -1.894531 4.0625 -2.21875 C 4.15625 -2.550781 4.273438 -2.910156 4.421875 -3.296875 L 6.46875 -9.140625 Z M 7.671875 -9.140625 "/>
</symbol>
<symbol overflow="visible" id="glyph0-4">
<path style="stroke:none;" d="M 6.96875 0 L 5.875 -2.828125 L 2.25 -2.828125 L 1.171875 0 L 0 0 L 3.578125 -9.171875 L 4.609375 -9.171875 L 8.171875 0 Z M 4.5 -6.609375 C 4.476562 -6.679688 4.4375 -6.804688 4.375 -6.984375 C 4.3125 -7.160156 4.253906 -7.34375 4.203125 -7.53125 C 4.148438 -7.726562 4.101562 -7.878906 4.0625 -7.984375 C 4.007812 -7.722656 3.941406 -7.460938 3.859375 -7.203125 C 3.785156 -6.953125 3.722656 -6.753906 3.671875 -6.609375 L 2.640625 -3.859375 L 5.53125 -3.859375 Z M 4.5 -6.609375 "/>
</symbol>
<symbol overflow="visible" id="glyph0-5">
<path style="stroke:none;" d=""/>
</symbol>
<symbol overflow="visible" id="glyph0-6">
<path style="stroke:none;" d="M 11.734375 -9.140625 L 9.296875 0 L 8.140625 0 L 6.359375 -5.984375 C 6.285156 -6.234375 6.210938 -6.484375 6.140625 -6.734375 C 6.078125 -6.984375 6.023438 -7.203125 5.984375 -7.390625 C 5.941406 -7.578125 5.914062 -7.710938 5.90625 -7.796875 C 5.894531 -7.679688 5.847656 -7.441406 5.765625 -7.078125 C 5.679688 -6.722656 5.582031 -6.347656 5.46875 -5.953125 L 3.734375 0 L 2.578125 0 L 0.15625 -9.140625 L 1.359375 -9.140625 L 2.78125 -3.5625 C 2.882812 -3.164062 2.96875 -2.785156 3.03125 -2.421875 C 3.101562 -2.054688 3.164062 -1.707031 3.21875 -1.375 C 3.257812 -1.707031 3.320312 -2.070312 3.40625 -2.46875 C 3.488281 -2.863281 3.585938 -3.25 3.703125 -3.625 L 5.3125 -9.140625 L 6.5 -9.140625 L 8.171875 -3.578125 C 8.296875 -3.191406 8.398438 -2.800781 8.484375 -2.40625 C 8.566406 -2.019531 8.628906 -1.675781 8.671875 -1.375 C 8.710938 -1.695312 8.769531 -2.039062 8.84375 -2.40625 C 8.925781 -2.78125 9.019531 -3.171875 9.125 -3.578125 L 10.53125 -9.140625 Z M 11.734375 -9.140625 "/>
</symbol>
<symbol overflow="visible" id="glyph0-7">
<path style="stroke:none;" d="M 3.734375 -6.984375 C 4.328125 -6.984375 4.832031 -6.851562 5.25 -6.59375 C 5.675781 -6.34375 6 -5.984375 6.21875 -5.515625 C 6.445312 -5.054688 6.5625 -4.515625 6.5625 -3.890625 L 6.5625 -3.21875 L 1.875 -3.21875 C 1.882812 -2.4375 2.078125 -1.84375 2.453125 -1.4375 C 2.835938 -1.03125 3.375 -0.828125 4.0625 -0.828125 C 4.488281 -0.828125 4.867188 -0.867188 5.203125 -0.953125 C 5.546875 -1.035156 5.894531 -1.15625 6.25 -1.3125 L 6.25 -0.3125 C 5.90625 -0.164062 5.5625 -0.0546875 5.21875 0.015625 C 4.875 0.0859375 4.46875 0.125 4 0.125 C 3.351562 0.125 2.78125 -0.00390625 2.28125 -0.265625 C 1.78125 -0.535156 1.390625 -0.929688 1.109375 -1.453125 C 0.835938 -1.972656 0.703125 -2.613281 0.703125 -3.375 C 0.703125 -4.125 0.828125 -4.765625 1.078125 -5.296875 C 1.328125 -5.835938 1.679688 -6.253906 2.140625 -6.546875 C 2.597656 -6.835938 3.128906 -6.984375 3.734375 -6.984375 Z M 3.71875 -6.0625 C 3.1875 -6.0625 2.765625 -5.890625 2.453125 -5.546875 C 2.140625 -5.203125 1.953125 -4.722656 1.890625 -4.109375 L 5.390625 -4.109375 C 5.378906 -4.691406 5.238281 -5.160156 4.96875 -5.515625 C 4.707031 -5.878906 4.289062 -6.0625 3.71875 -6.0625 Z M 3.71875 -6.0625 "/>
</symbol>
<symbol overflow="visible" id="glyph0-8">
<path style="stroke:none;" d="M 2.21875 -7.359375 C 2.21875 -7.066406 2.207031 -6.796875 2.1875 -6.546875 C 2.175781 -6.296875 2.164062 -6.097656 2.15625 -5.953125 L 2.21875 -5.953125 C 2.414062 -6.242188 2.679688 -6.484375 3.015625 -6.671875 C 3.359375 -6.867188 3.800781 -6.96875 4.34375 -6.96875 C 5.195312 -6.96875 5.878906 -6.671875 6.390625 -6.078125 C 6.910156 -5.492188 7.171875 -4.609375 7.171875 -3.421875 C 7.171875 -2.242188 6.910156 -1.359375 6.390625 -0.765625 C 5.867188 -0.171875 5.1875 0.125 4.34375 0.125 C 3.800781 0.125 3.359375 0.03125 3.015625 -0.15625 C 2.679688 -0.351562 2.414062 -0.59375 2.21875 -0.875 L 2.125 -0.875 L 1.890625 0 L 1.09375 0 L 1.09375 -9.71875 L 2.21875 -9.71875 Z M 4.140625 -6.046875 C 3.421875 -6.046875 2.921875 -5.832031 2.640625 -5.40625 C 2.359375 -4.988281 2.21875 -4.34375 2.21875 -3.46875 L 2.21875 -3.421875 C 2.21875 -2.578125 2.351562 -1.929688 2.625 -1.484375 C 2.90625 -1.035156 3.421875 -0.8125 4.171875 -0.8125 C 4.785156 -0.8125 5.242188 -1.035156 5.546875 -1.484375 C 5.847656 -1.929688 6 -2.582031 6 -3.4375 C 6 -5.175781 5.378906 -6.046875 4.140625 -6.046875 Z M 4.140625 -6.046875 "/>
</symbol>
<symbol overflow="visible" id="glyph0-9">
<path style="stroke:none;" d="M 8.5625 -4.65625 C 8.5625 -3.113281 8.140625 -1.953125 7.296875 -1.171875 C 6.460938 -0.390625 5.289062 0 3.78125 0 L 1.234375 0 L 1.234375 -9.140625 L 4.0625 -9.140625 C 4.976562 -9.140625 5.769531 -8.96875 6.4375 -8.625 C 7.113281 -8.28125 7.632812 -7.773438 8 -7.109375 C 8.375 -6.453125 8.5625 -5.632812 8.5625 -4.65625 Z M 7.34375 -4.625 C 7.34375 -5.84375 7.039062 -6.734375 6.4375 -7.296875 C 5.84375 -7.867188 4.992188 -8.15625 3.890625 -8.15625 L 2.390625 -8.15625 L 2.390625 -0.984375 L 3.640625 -0.984375 C 6.109375 -0.984375 7.34375 -2.195312 7.34375 -4.625 Z M 7.34375 -4.625 "/>
</symbol>
<symbol overflow="visible" id="glyph0-10">
<path style="stroke:none;" d="M 2.59375 0 L 0 -6.859375 L 1.203125 -6.859375 L 2.65625 -2.8125 C 2.726562 -2.625 2.800781 -2.414062 2.875 -2.1875 C 2.957031 -1.957031 3.023438 -1.738281 3.078125 -1.53125 C 3.140625 -1.320312 3.1875 -1.144531 3.21875 -1 L 3.265625 -1 C 3.296875 -1.144531 3.34375 -1.320312 3.40625 -1.53125 C 3.46875 -1.75 3.539062 -1.972656 3.625 -2.203125 C 3.707031 -2.429688 3.78125 -2.632812 3.84375 -2.8125 L 5.296875 -6.859375 L 6.5 -6.859375 L 3.890625 0 Z M 2.59375 0 "/>
</symbol>
<symbol overflow="visible" id="glyph0-11">
<path style="stroke:none;" d="M 6.421875 -2.4375 C 6.421875 -1.632812 6.125 -1.003906 5.53125 -0.546875 C 4.945312 -0.0976562 4.15625 0.125 3.15625 0.125 C 2.644531 0.125 2.171875 0.0820312 1.734375 0 C 1.304688 -0.0703125 0.945312 -0.175781 0.65625 -0.3125 L 0.65625 -1.40625 C 0.957031 -1.269531 1.335938 -1.144531 1.796875 -1.03125 C 2.253906 -0.925781 2.726562 -0.875 3.21875 -0.875 C 3.894531 -0.875 4.40625 -1.003906 4.75 -1.265625 C 5.09375 -1.523438 5.265625 -1.882812 5.265625 -2.34375 C 5.265625 -2.644531 5.203125 -2.894531 5.078125 -3.09375 C 4.953125 -3.300781 4.734375 -3.488281 4.421875 -3.65625 C 4.109375 -3.832031 3.675781 -4.019531 3.125 -4.21875 C 2.34375 -4.5 1.753906 -4.84375 1.359375 -5.25 C 0.960938 -5.664062 0.765625 -6.226562 0.765625 -6.9375 C 0.765625 -7.425781 0.890625 -7.84375 1.140625 -8.1875 C 1.390625 -8.53125 1.734375 -8.796875 2.171875 -8.984375 C 2.609375 -9.171875 3.113281 -9.265625 3.6875 -9.265625 C 4.1875 -9.265625 4.644531 -9.21875 5.0625 -9.125 C 5.476562 -9.03125 5.859375 -8.90625 6.203125 -8.75 L 5.84375 -7.765625 C 5.53125 -7.898438 5.1875 -8.015625 4.8125 -8.109375 C 4.445312 -8.203125 4.0625 -8.25 3.65625 -8.25 C 3.082031 -8.25 2.648438 -8.128906 2.359375 -7.890625 C 2.078125 -7.648438 1.9375 -7.328125 1.9375 -6.921875 C 1.9375 -6.617188 2 -6.363281 2.125 -6.15625 C 2.25 -5.945312 2.457031 -5.757812 2.75 -5.59375 C 3.039062 -5.4375 3.429688 -5.265625 3.921875 -5.078125 C 4.460938 -4.878906 4.914062 -4.664062 5.28125 -4.4375 C 5.65625 -4.21875 5.9375 -3.945312 6.125 -3.625 C 6.320312 -3.3125 6.421875 -2.914062 6.421875 -2.4375 Z M 6.421875 -2.4375 "/>
</symbol>
<symbol overflow="visible" id="glyph0-12">
<path style="stroke:none;" d="M 6.34375 0 L 1.234375 0 L 1.234375 -9.140625 L 6.34375 -9.140625 L 6.34375 -8.125 L 2.390625 -8.125 L 2.390625 -5.265625 L 6.109375 -5.265625 L 6.109375 -4.28125 L 2.390625 -4.28125 L 2.390625 -1.015625 L 6.34375 -1.015625 Z M 6.34375 0 "/>
</symbol>
<symbol overflow="visible" id="glyph0-13">
<path style="stroke:none;" d="M 5.15625 -8.25 C 4.175781 -8.25 3.40625 -7.921875 2.84375 -7.265625 C 2.28125 -6.609375 2 -5.707031 2 -4.5625 C 2 -3.425781 2.257812 -2.53125 2.78125 -1.875 C 3.3125 -1.21875 4.097656 -0.890625 5.140625 -0.890625 C 5.546875 -0.890625 5.925781 -0.921875 6.28125 -0.984375 C 6.644531 -1.054688 6.992188 -1.140625 7.328125 -1.234375 L 7.328125 -0.25 C 6.992188 -0.113281 6.644531 -0.0195312 6.28125 0.03125 C 5.914062 0.09375 5.484375 0.125 4.984375 0.125 C 4.046875 0.125 3.265625 -0.0664062 2.640625 -0.453125 C 2.023438 -0.835938 1.5625 -1.378906 1.25 -2.078125 C 0.9375 -2.785156 0.78125 -3.617188 0.78125 -4.578125 C 0.78125 -5.503906 0.945312 -6.316406 1.28125 -7.015625 C 1.625 -7.722656 2.125 -8.273438 2.78125 -8.671875 C 3.4375 -9.066406 4.234375 -9.265625 5.171875 -9.265625 C 6.128906 -9.265625 6.96875 -9.085938 7.6875 -8.734375 L 7.234375 -7.75 C 6.953125 -7.882812 6.632812 -8 6.28125 -8.09375 C 5.9375 -8.195312 5.5625 -8.25 5.15625 -8.25 Z M 5.15625 -8.25 "/>
</symbol>
<symbol overflow="visible" id="glyph0-14">
<path style="stroke:none;" d="M 1.234375 0 L 1.234375 -9.140625 L 2.390625 -9.140625 L 2.390625 -1.03125 L 6.390625 -1.03125 L 6.390625 0 Z M 1.234375 0 "/>
</symbol>
<symbol overflow="visible" id="glyph0-15">
<path style="stroke:none;" d="M 5.265625 0 L 2.265625 -8.015625 L 2.21875 -8.015625 C 2.238281 -7.742188 2.253906 -7.382812 2.265625 -6.9375 C 2.285156 -6.488281 2.296875 -6.023438 2.296875 -5.546875 L 2.296875 0 L 1.234375 0 L 1.234375 -9.140625 L 2.9375 -9.140625 L 5.765625 -1.65625 L 5.8125 -1.65625 L 8.671875 -9.140625 L 10.359375 -9.140625 L 10.359375 0 L 9.21875 0 L 9.21875 -5.625 C 9.21875 -6.0625 9.226562 -6.5 9.25 -6.9375 C 9.28125 -7.375 9.300781 -7.726562 9.3125 -8 L 9.265625 -8 L 6.21875 0 Z M 5.265625 0 "/>
</symbol>
<symbol overflow="visible" id="glyph0-16">
<path style="stroke:none;" d="M 6.828125 -6.859375 L 6.828125 0 L 5.90625 0 L 5.734375 -0.90625 L 5.6875 -0.90625 C 5.457031 -0.550781 5.144531 -0.289062 4.75 -0.125 C 4.363281 0.0390625 3.945312 0.125 3.5 0.125 C 2.675781 0.125 2.054688 -0.0703125 1.640625 -0.46875 C 1.222656 -0.863281 1.015625 -1.5 1.015625 -2.375 L 1.015625 -6.859375 L 2.15625 -6.859375 L 2.15625 -2.4375 C 2.15625 -1.351562 2.660156 -0.8125 3.671875 -0.8125 C 4.429688 -0.8125 4.957031 -1.019531 5.25 -1.4375 C 5.539062 -1.863281 5.6875 -2.476562 5.6875 -3.28125 L 5.6875 -6.859375 Z M 6.828125 -6.859375 "/>
</symbol>
<symbol overflow="visible" id="glyph0-17">
<path style="stroke:none;" d="M 1 -8.71875 C 1 -8.957031 1.0625 -9.132812 1.1875 -9.25 C 1.3125 -9.375 1.46875 -9.4375 1.65625 -9.4375 C 1.832031 -9.4375 1.984375 -9.375 2.109375 -9.25 C 2.242188 -9.132812 2.3125 -8.957031 2.3125 -8.71875 C 2.3125 -8.476562 2.242188 -8.296875 2.109375 -8.171875 C 1.984375 -8.054688 1.832031 -8 1.65625 -8 C 1.46875 -8 1.3125 -8.054688 1.1875 -8.171875 C 1.0625 -8.296875 1 -8.476562 1 -8.71875 Z M 0.28125 3.078125 C 0.0703125 3.078125 -0.113281 3.0625 -0.28125 3.03125 C -0.445312 3 -0.585938 2.960938 -0.703125 2.921875 L -0.703125 2.015625 C -0.578125 2.046875 -0.445312 2.070312 -0.3125 2.09375 C -0.175781 2.125 -0.0234375 2.140625 0.140625 2.140625 C 0.410156 2.140625 0.632812 2.0625 0.8125 1.90625 C 1 1.757812 1.09375 1.476562 1.09375 1.0625 L 1.09375 -6.859375 L 2.21875 -6.859375 L 2.21875 1.03125 C 2.21875 1.664062 2.0625 2.164062 1.75 2.53125 C 1.445312 2.894531 0.957031 3.078125 0.28125 3.078125 Z M 0.28125 3.078125 "/>
</symbol>
<symbol overflow="visible" id="glyph0-18">
<path style="stroke:none;" d="M 4.28125 -6.984375 C 4.414062 -6.984375 4.554688 -6.976562 4.703125 -6.96875 C 4.847656 -6.957031 4.976562 -6.9375 5.09375 -6.90625 L 4.953125 -5.875 C 4.835938 -5.894531 4.710938 -5.914062 4.578125 -5.9375 C 4.453125 -5.957031 4.328125 -5.96875 4.203125 -5.96875 C 3.859375 -5.96875 3.53125 -5.867188 3.21875 -5.671875 C 2.914062 -5.484375 2.671875 -5.210938 2.484375 -4.859375 C 2.304688 -4.515625 2.21875 -4.113281 2.21875 -3.65625 L 2.21875 0 L 1.09375 0 L 1.09375 -6.859375 L 2.015625 -6.859375 L 2.140625 -5.609375 L 2.1875 -5.609375 C 2.40625 -5.984375 2.691406 -6.304688 3.046875 -6.578125 C 3.398438 -6.847656 3.8125 -6.984375 4.28125 -6.984375 Z M 4.28125 -6.984375 "/>
</symbol>
<symbol overflow="visible" id="glyph0-19">
<path style="stroke:none;" d="M 5.546875 -1.890625 C 5.546875 -1.222656 5.296875 -0.71875 4.796875 -0.375 C 4.304688 -0.0390625 3.644531 0.125 2.8125 0.125 C 2.332031 0.125 1.921875 0.0820312 1.578125 0 C 1.234375 -0.0703125 0.929688 -0.175781 0.671875 -0.3125 L 0.671875 -1.328125 C 0.941406 -1.191406 1.269531 -1.066406 1.65625 -0.953125 C 2.039062 -0.835938 2.4375 -0.78125 2.84375 -0.78125 C 3.414062 -0.78125 3.828125 -0.867188 4.078125 -1.046875 C 4.335938 -1.234375 4.46875 -1.484375 4.46875 -1.796875 C 4.46875 -1.960938 4.421875 -2.113281 4.328125 -2.25 C 4.234375 -2.382812 4.0625 -2.519531 3.8125 -2.65625 C 3.570312 -2.789062 3.226562 -2.945312 2.78125 -3.125 C 2.332031 -3.289062 1.953125 -3.457031 1.640625 -3.625 C 1.328125 -3.800781 1.082031 -4.007812 0.90625 -4.25 C 0.738281 -4.488281 0.65625 -4.796875 0.65625 -5.171875 C 0.65625 -5.753906 0.890625 -6.203125 1.359375 -6.515625 C 1.835938 -6.828125 2.457031 -6.984375 3.21875 -6.984375 C 3.644531 -6.984375 4.035156 -6.941406 4.390625 -6.859375 C 4.753906 -6.785156 5.09375 -6.675781 5.40625 -6.53125 L 5.03125 -5.625 C 4.738281 -5.75 4.429688 -5.851562 4.109375 -5.9375 C 3.796875 -6.019531 3.472656 -6.0625 3.140625 -6.0625 C 2.679688 -6.0625 2.332031 -5.988281 2.09375 -5.84375 C 1.851562 -5.695312 1.734375 -5.492188 1.734375 -5.234375 C 1.734375 -5.046875 1.785156 -4.882812 1.890625 -4.75 C 2.003906 -4.625 2.191406 -4.5 2.453125 -4.375 C 2.710938 -4.25 3.0625 -4.097656 3.5 -3.921875 C 3.925781 -3.765625 4.289062 -3.597656 4.59375 -3.421875 C 4.90625 -3.253906 5.140625 -3.046875 5.296875 -2.796875 C 5.460938 -2.554688 5.546875 -2.253906 5.546875 -1.890625 Z M 5.546875 -1.890625 "/>
</symbol>
<symbol overflow="visible" id="glyph0-20">
<path style="stroke:none;" d="M 3.6875 -6.96875 C 4.519531 -6.96875 5.132812 -6.785156 5.53125 -6.421875 C 5.9375 -6.054688 6.140625 -5.472656 6.140625 -4.671875 L 6.140625 0 L 5.328125 0 L 5.109375 -0.96875 L 5.0625 -0.96875 C 4.757812 -0.59375 4.441406 -0.316406 4.109375 -0.140625 C 3.785156 0.0351562 3.332031 0.125 2.75 0.125 C 2.125 0.125 1.609375 -0.0351562 1.203125 -0.359375 C 0.796875 -0.691406 0.59375 -1.207031 0.59375 -1.90625 C 0.59375 -2.59375 0.859375 -3.117188 1.390625 -3.484375 C 1.929688 -3.859375 2.757812 -4.0625 3.875 -4.09375 L 5.046875 -4.140625 L 5.046875 -4.546875 C 5.046875 -5.117188 4.921875 -5.515625 4.671875 -5.734375 C 4.421875 -5.953125 4.070312 -6.0625 3.625 -6.0625 C 3.257812 -6.0625 2.914062 -6.007812 2.59375 -5.90625 C 2.269531 -5.800781 1.96875 -5.679688 1.6875 -5.546875 L 1.34375 -6.390625 C 1.644531 -6.546875 2 -6.679688 2.40625 -6.796875 C 2.8125 -6.910156 3.238281 -6.96875 3.6875 -6.96875 Z M 4.015625 -3.3125 C 3.160156 -3.28125 2.566406 -3.144531 2.234375 -2.90625 C 1.910156 -2.664062 1.75 -2.328125 1.75 -1.890625 C 1.75 -1.503906 1.863281 -1.222656 2.09375 -1.046875 C 2.332031 -0.867188 2.632812 -0.78125 3 -0.78125 C 3.582031 -0.78125 4.066406 -0.9375 4.453125 -1.25 C 4.835938 -1.570312 5.03125 -2.066406 5.03125 -2.734375 L 5.03125 -3.359375 Z M 4.015625 -3.3125 "/>
</symbol>
<symbol overflow="visible" id="glyph0-21">
<path style="stroke:none;" d="M 4.390625 -6.984375 C 5.210938 -6.984375 5.832031 -6.785156 6.25 -6.390625 C 6.664062 -5.992188 6.875 -5.351562 6.875 -4.46875 L 6.875 0 L 5.765625 0 L 5.765625 -4.390625 C 5.765625 -5.492188 5.25 -6.046875 4.21875 -6.046875 C 3.457031 -6.046875 2.929688 -5.832031 2.640625 -5.40625 C 2.359375 -4.976562 2.21875 -4.363281 2.21875 -3.5625 L 2.21875 0 L 1.09375 0 L 1.09375 -6.859375 L 2 -6.859375 L 2.15625 -5.921875 L 2.234375 -5.921875 C 2.453125 -6.285156 2.753906 -6.550781 3.140625 -6.71875 C 3.535156 -6.894531 3.953125 -6.984375 4.390625 -6.984375 Z M 4.390625 -6.984375 "/>
</symbol>
<symbol overflow="visible" id="glyph0-22">
<path style="stroke:none;" d="M 7.046875 -3.4375 C 7.046875 -2.300781 6.757812 -1.421875 6.1875 -0.796875 C 5.613281 -0.179688 4.835938 0.125 3.859375 0.125 C 3.242188 0.125 2.695312 -0.0078125 2.21875 -0.28125 C 1.75 -0.5625 1.378906 -0.96875 1.109375 -1.5 C 0.835938 -2.03125 0.703125 -2.675781 0.703125 -3.4375 C 0.703125 -4.570312 0.988281 -5.445312 1.5625 -6.0625 C 2.132812 -6.675781 2.910156 -6.984375 3.890625 -6.984375 C 4.515625 -6.984375 5.0625 -6.84375 5.53125 -6.5625 C 6.007812 -6.289062 6.378906 -5.890625 6.640625 -5.359375 C 6.910156 -4.835938 7.046875 -4.195312 7.046875 -3.4375 Z M 1.875 -3.4375 C 1.875 -2.632812 2.03125 -1.992188 2.34375 -1.515625 C 2.664062 -1.046875 3.175781 -0.8125 3.875 -0.8125 C 4.5625 -0.8125 5.066406 -1.046875 5.390625 -1.515625 C 5.722656 -1.992188 5.890625 -2.632812 5.890625 -3.4375 C 5.890625 -4.25 5.722656 -4.882812 5.390625 -5.34375 C 5.066406 -5.8125 4.554688 -6.046875 3.859375 -6.046875 C 3.160156 -6.046875 2.65625 -5.8125 2.34375 -5.34375 C 2.03125 -4.882812 1.875 -4.25 1.875 -3.4375 Z M 1.875 -3.4375 "/>
</symbol>
<symbol overflow="visible" id="glyph0-23">
<path style="stroke:none;" d="M 2.21875 0 L 1.09375 0 L 1.09375 -9.71875 L 2.21875 -9.71875 Z M 2.21875 0 "/>
</symbol>
<symbol overflow="visible" id="glyph0-24">
<path style="stroke:none;" d="M 3.84375 0.125 C 3.238281 0.125 2.695312 0.00390625 2.21875 -0.234375 C 1.75 -0.484375 1.378906 -0.867188 1.109375 -1.390625 C 0.835938 -1.910156 0.703125 -2.578125 0.703125 -3.390625 C 0.703125 -4.234375 0.84375 -4.921875 1.125 -5.453125 C 1.40625 -5.984375 1.785156 -6.367188 2.265625 -6.609375 C 2.753906 -6.859375 3.304688 -6.984375 3.921875 -6.984375 C 4.265625 -6.984375 4.597656 -6.945312 4.921875 -6.875 C 5.242188 -6.800781 5.507812 -6.710938 5.71875 -6.609375 L 5.375 -5.6875 C 5.164062 -5.757812 4.925781 -5.828125 4.65625 -5.890625 C 4.382812 -5.960938 4.128906 -6 3.890625 -6 C 2.546875 -6 1.875 -5.132812 1.875 -3.40625 C 1.875 -2.570312 2.035156 -1.9375 2.359375 -1.5 C 2.691406 -1.0625 3.179688 -0.84375 3.828125 -0.84375 C 4.203125 -0.84375 4.53125 -0.878906 4.8125 -0.953125 C 5.101562 -1.035156 5.367188 -1.128906 5.609375 -1.234375 L 5.609375 -0.25 C 5.378906 -0.125 5.125 -0.03125 4.84375 0.03125 C 4.5625 0.09375 4.226562 0.125 3.84375 0.125 Z M 3.84375 0.125 "/>
</symbol>
<symbol overflow="visible" id="glyph0-25">
<path style="stroke:none;" d="M 1.65625 -9.4375 C 1.832031 -9.4375 1.984375 -9.375 2.109375 -9.25 C 2.242188 -9.132812 2.3125 -8.957031 2.3125 -8.71875 C 2.3125 -8.476562 2.242188 -8.296875 2.109375 -8.171875 C 1.984375 -8.054688 1.832031 -8 1.65625 -8 C 1.46875 -8 1.3125 -8.054688 1.1875 -8.171875 C 1.0625 -8.296875 1 -8.476562 1 -8.71875 C 1 -8.957031 1.0625 -9.132812 1.1875 -9.25 C 1.3125 -9.375 1.46875 -9.4375 1.65625 -9.4375 Z M 2.21875 -6.859375 L 2.21875 0 L 1.09375 0 L 1.09375 -6.859375 Z M 2.21875 -6.859375 "/>
</symbol>
<symbol overflow="visible" id="glyph0-26">
<path style="stroke:none;" d="M -0.046875 2.4375 C -0.253906 2.4375 -0.429688 2.421875 -0.578125 2.390625 C -0.734375 2.359375 -0.875 2.316406 -1 2.265625 L -1 1.296875 C -0.863281 1.328125 -0.71875 1.351562 -0.5625 1.375 C -0.40625 1.40625 -0.242188 1.421875 -0.078125 1.421875 C 0.140625 1.421875 0.34375 1.378906 0.53125 1.296875 C 0.71875 1.210938 0.867188 1.0625 0.984375 0.84375 C 1.109375 0.632812 1.171875 0.335938 1.171875 -0.046875 L 1.171875 -9.140625 L 2.328125 -9.140625 L 2.328125 -0.140625 C 2.328125 0.734375 2.109375 1.378906 1.671875 1.796875 C 1.242188 2.222656 0.671875 2.4375 -0.046875 2.4375 Z M -0.046875 2.4375 "/>
</symbol>
<symbol overflow="visible" id="glyph0-27">
<path style="stroke:none;" d="M 3.375 -0.796875 C 3.550781 -0.796875 3.726562 -0.8125 3.90625 -0.84375 C 4.082031 -0.875 4.226562 -0.90625 4.34375 -0.9375 L 4.34375 -0.078125 C 4.21875 -0.015625 4.046875 0.03125 3.828125 0.0625 C 3.609375 0.101562 3.394531 0.125 3.1875 0.125 C 2.832031 0.125 2.5 0.0625 2.1875 -0.0625 C 1.882812 -0.1875 1.640625 -0.398438 1.453125 -0.703125 C 1.265625 -1.015625 1.171875 -1.445312 1.171875 -2 L 1.171875 -5.984375 L 0.203125 -5.984375 L 0.203125 -6.53125 L 1.1875 -6.96875 L 1.640625 -8.4375 L 2.296875 -8.4375 L 2.296875 -6.859375 L 4.28125 -6.859375 L 4.28125 -5.984375 L 2.296875 -5.984375 L 2.296875 -2.015625 C 2.296875 -1.597656 2.394531 -1.289062 2.59375 -1.09375 C 2.800781 -0.894531 3.0625 -0.796875 3.375 -0.796875 Z M 3.375 -0.796875 "/>
</symbol>
<symbol overflow="visible" id="glyph0-28">
<path style="stroke:none;" d="M 8.609375 -6.984375 C 9.390625 -6.984375 9.96875 -6.785156 10.34375 -6.390625 C 10.726562 -5.992188 10.921875 -5.351562 10.921875 -4.46875 L 10.921875 0 L 9.8125 0 L 9.8125 -4.421875 C 9.8125 -5.503906 9.347656 -6.046875 8.421875 -6.046875 C 7.753906 -6.046875 7.273438 -5.851562 6.984375 -5.46875 C 6.703125 -5.082031 6.5625 -4.519531 6.5625 -3.78125 L 6.5625 0 L 5.453125 0 L 5.453125 -4.421875 C 5.453125 -5.503906 4.984375 -6.046875 4.046875 -6.046875 C 3.347656 -6.046875 2.867188 -5.832031 2.609375 -5.40625 C 2.347656 -4.976562 2.21875 -4.363281 2.21875 -3.5625 L 2.21875 0 L 1.09375 0 L 1.09375 -6.859375 L 2 -6.859375 L 2.15625 -5.921875 L 2.234375 -5.921875 C 2.441406 -6.285156 2.726562 -6.550781 3.09375 -6.71875 C 3.457031 -6.894531 3.84375 -6.984375 4.25 -6.984375 C 5.320312 -6.984375 6.019531 -6.597656 6.34375 -5.828125 L 6.40625 -5.828125 C 6.632812 -6.222656 6.945312 -6.515625 7.34375 -6.703125 C 7.75 -6.890625 8.171875 -6.984375 8.609375 -6.984375 Z M 8.609375 -6.984375 "/>
</symbol>
<symbol overflow="visible" id="glyph0-29">
<path style="stroke:none;" d="M 4.34375 -6.984375 C 5.195312 -6.984375 5.878906 -6.6875 6.390625 -6.09375 C 6.910156 -5.507812 7.171875 -4.625 7.171875 -3.4375 C 7.171875 -2.269531 6.910156 -1.382812 6.390625 -0.78125 C 5.878906 -0.175781 5.195312 0.125 4.34375 0.125 C 3.8125 0.125 3.375 0.0234375 3.03125 -0.171875 C 2.6875 -0.367188 2.414062 -0.601562 2.21875 -0.875 L 2.140625 -0.875 C 2.148438 -0.726562 2.164062 -0.539062 2.1875 -0.3125 C 2.207031 -0.09375 2.21875 0.09375 2.21875 0.25 L 2.21875 3.078125 L 1.09375 3.078125 L 1.09375 -6.859375 L 2.015625 -6.859375 L 2.15625 -5.921875 L 2.21875 -5.921875 C 2.414062 -6.222656 2.679688 -6.472656 3.015625 -6.671875 C 3.347656 -6.878906 3.789062 -6.984375 4.34375 -6.984375 Z M 4.140625 -6.046875 C 3.441406 -6.046875 2.945312 -5.847656 2.65625 -5.453125 C 2.375 -5.054688 2.226562 -4.457031 2.21875 -3.65625 L 2.21875 -3.4375 C 2.21875 -2.59375 2.351562 -1.941406 2.625 -1.484375 C 2.90625 -1.035156 3.421875 -0.8125 4.171875 -0.8125 C 4.585938 -0.8125 4.929688 -0.925781 5.203125 -1.15625 C 5.472656 -1.382812 5.671875 -1.695312 5.796875 -2.09375 C 5.929688 -2.488281 6 -2.941406 6 -3.453125 C 6 -4.234375 5.847656 -4.859375 5.546875 -5.328125 C 5.242188 -5.804688 4.773438 -6.046875 4.140625 -6.046875 Z M 4.140625 -6.046875 "/>
</symbol>
<symbol overflow="visible" id="glyph0-30">
<path style="stroke:none;" d="M 3.515625 -6.984375 C 3.972656 -6.984375 4.378906 -6.894531 4.734375 -6.71875 C 5.097656 -6.550781 5.410156 -6.296875 5.671875 -5.953125 L 5.734375 -5.953125 L 5.890625 -6.859375 L 6.78125 -6.859375 L 6.78125 0.109375 C 6.78125 1.097656 6.53125 1.835938 6.03125 2.328125 C 5.53125 2.828125 4.757812 3.078125 3.71875 3.078125 C 2.707031 3.078125 1.878906 2.929688 1.234375 2.640625 L 1.234375 1.59375 C 1.910156 1.957031 2.757812 2.140625 3.78125 2.140625 C 4.363281 2.140625 4.820312 1.960938 5.15625 1.609375 C 5.5 1.265625 5.671875 0.796875 5.671875 0.203125 L 5.671875 -0.0625 C 5.671875 -0.164062 5.671875 -0.3125 5.671875 -0.5 C 5.679688 -0.695312 5.691406 -0.832031 5.703125 -0.90625 L 5.65625 -0.90625 C 5.195312 -0.21875 4.488281 0.125 3.53125 0.125 C 2.644531 0.125 1.953125 -0.179688 1.453125 -0.796875 C 0.953125 -1.421875 0.703125 -2.296875 0.703125 -3.421875 C 0.703125 -4.515625 0.953125 -5.378906 1.453125 -6.015625 C 1.953125 -6.660156 2.640625 -6.984375 3.515625 -6.984375 Z M 3.671875 -6.046875 C 3.097656 -6.046875 2.65625 -5.816406 2.34375 -5.359375 C 2.03125 -4.898438 1.875 -4.25 1.875 -3.40625 C 1.875 -2.5625 2.023438 -1.914062 2.328125 -1.46875 C 2.640625 -1.019531 3.097656 -0.796875 3.703125 -0.796875 C 4.390625 -0.796875 4.890625 -0.976562 5.203125 -1.34375 C 5.523438 -1.71875 5.6875 -2.316406 5.6875 -3.140625 L 5.6875 -3.421875 C 5.6875 -4.359375 5.519531 -5.03125 5.1875 -5.4375 C 4.863281 -5.84375 4.359375 -6.046875 3.671875 -6.046875 Z M 3.671875 -6.046875 "/>
</symbol>
<symbol overflow="visible" id="glyph0-31">
<path style="stroke:none;" d="M 2.390625 0 L 1.234375 0 L 1.234375 -9.140625 L 6.34375 -9.140625 L 6.34375 -8.125 L 2.390625 -8.125 L 2.390625 -4.890625 L 6.109375 -4.890625 L 6.109375 -3.875 L 2.390625 -3.875 Z M 2.390625 0 "/>
</symbol>
<symbol overflow="visible" id="glyph0-32">
<path style="stroke:none;" d="M 3.515625 0.125 C 2.660156 0.125 1.976562 -0.171875 1.46875 -0.765625 C 0.957031 -1.359375 0.703125 -2.242188 0.703125 -3.421875 C 0.703125 -4.597656 0.957031 -5.484375 1.46875 -6.078125 C 1.988281 -6.679688 2.675781 -6.984375 3.53125 -6.984375 C 4.0625 -6.984375 4.492188 -6.882812 4.828125 -6.6875 C 5.171875 -6.5 5.445312 -6.257812 5.65625 -5.96875 L 5.734375 -5.96875 C 5.722656 -6.082031 5.707031 -6.25 5.6875 -6.46875 C 5.664062 -6.6875 5.65625 -6.859375 5.65625 -6.984375 L 5.65625 -9.71875 L 6.78125 -9.71875 L 6.78125 0 L 5.875 0 L 5.703125 -0.921875 L 5.65625 -0.921875 C 5.445312 -0.628906 5.171875 -0.378906 4.828125 -0.171875 C 4.492188 0.0234375 4.054688 0.125 3.515625 0.125 Z M 3.703125 -0.8125 C 4.421875 -0.8125 4.925781 -1.007812 5.21875 -1.40625 C 5.519531 -1.800781 5.671875 -2.398438 5.671875 -3.203125 L 5.671875 -3.40625 C 5.671875 -4.257812 5.53125 -4.910156 5.25 -5.359375 C 4.96875 -5.816406 4.445312 -6.046875 3.6875 -6.046875 C 3.082031 -6.046875 2.628906 -5.804688 2.328125 -5.328125 C 2.023438 -4.847656 1.875 -4.203125 1.875 -3.390625 C 1.875 -2.566406 2.023438 -1.929688 2.328125 -1.484375 C 2.628906 -1.035156 3.085938 -0.8125 3.703125 -0.8125 Z M 3.703125 -0.8125 "/>
</symbol>
<symbol overflow="visible" id="glyph0-33">
<path style="stroke:none;" d="M 3.65625 -9.140625 C 4.851562 -9.140625 5.722656 -8.90625 6.265625 -8.4375 C 6.816406 -7.96875 7.09375 -7.304688 7.09375 -6.453125 C 7.09375 -5.941406 6.976562 -5.46875 6.75 -5.03125 C 6.519531 -4.59375 6.140625 -4.238281 5.609375 -3.96875 C 5.078125 -3.695312 4.351562 -3.5625 3.4375 -3.5625 L 2.390625 -3.5625 L 2.390625 0 L 1.234375 0 L 1.234375 -9.140625 Z M 3.5625 -8.15625 L 2.390625 -8.15625 L 2.390625 -4.546875 L 3.3125 -4.546875 C 4.1875 -4.546875 4.835938 -4.6875 5.265625 -4.96875 C 5.691406 -5.25 5.90625 -5.726562 5.90625 -6.40625 C 5.90625 -6.988281 5.710938 -7.425781 5.328125 -7.71875 C 4.953125 -8.007812 4.363281 -8.15625 3.5625 -8.15625 Z M 3.5625 -8.15625 "/>
</symbol>
<symbol overflow="visible" id="glyph0-34">
<path style="stroke:none;" d="M 2.21875 -6.875 C 2.21875 -6.53125 2.195312 -6.207031 2.15625 -5.90625 L 2.234375 -5.90625 C 2.453125 -6.257812 2.75 -6.523438 3.125 -6.703125 C 3.507812 -6.878906 3.921875 -6.96875 4.359375 -6.96875 C 5.203125 -6.96875 5.832031 -6.769531 6.25 -6.375 C 6.664062 -5.976562 6.875 -5.34375 6.875 -4.46875 L 6.875 0 L 5.765625 0 L 5.765625 -4.390625 C 5.765625 -5.492188 5.25 -6.046875 4.21875 -6.046875 C 3.457031 -6.046875 2.929688 -5.828125 2.640625 -5.390625 C 2.359375 -4.960938 2.21875 -4.347656 2.21875 -3.546875 L 2.21875 0 L 1.09375 0 L 1.09375 -9.71875 L 2.21875 -9.71875 Z M 2.21875 -6.875 "/>
</symbol>
<symbol overflow="visible" id="glyph0-35">
<path style="stroke:none;" d="M 8.1875 -3.21875 C 8.1875 -2.59375 8.054688 -2.023438 7.796875 -1.515625 C 7.546875 -1.003906 7.15625 -0.601562 6.625 -0.3125 C 6.101562 -0.0195312 5.4375 0.125 4.625 0.125 C 3.5 0.125 2.640625 -0.179688 2.046875 -0.796875 C 1.453125 -1.421875 1.15625 -2.238281 1.15625 -3.25 L 1.15625 -9.140625 L 2.296875 -9.140625 L 2.296875 -3.21875 C 2.296875 -2.46875 2.492188 -1.890625 2.890625 -1.484375 C 3.296875 -1.078125 3.898438 -0.875 4.703125 -0.875 C 5.523438 -0.875 6.117188 -1.09375 6.484375 -1.53125 C 6.859375 -1.96875 7.046875 -2.53125 7.046875 -3.21875 L 7.046875 -9.140625 L 8.1875 -9.140625 Z M 8.1875 -3.21875 "/>
</symbol>
<symbol overflow="visible" id="glyph0-36">
<path style="stroke:none;" d="M 0.921875 -0.6875 C 0.921875 -1.007812 0.992188 -1.234375 1.140625 -1.359375 C 1.296875 -1.484375 1.484375 -1.546875 1.703125 -1.546875 C 1.921875 -1.546875 2.109375 -1.484375 2.265625 -1.359375 C 2.429688 -1.234375 2.515625 -1.007812 2.515625 -0.6875 C 2.515625 -0.382812 2.429688 -0.164062 2.265625 -0.03125 C 2.109375 0.101562 1.921875 0.171875 1.703125 0.171875 C 1.484375 0.171875 1.296875 0.101562 1.140625 -0.03125 C 0.992188 -0.164062 0.921875 -0.382812 0.921875 -0.6875 Z M 0.921875 -0.6875 "/>
</symbol>
<symbol overflow="visible" id="glyph0-37">
<path style="stroke:none;" d="M 4.25 -5.984375 L 2.515625 -5.984375 L 2.515625 0 L 1.390625 0 L 1.390625 -5.984375 L 0.1875 -5.984375 L 0.1875 -6.515625 L 1.390625 -6.890625 L 1.390625 -7.296875 C 1.390625 -8.179688 1.585938 -8.816406 1.984375 -9.203125 C 2.378906 -9.597656 2.925781 -9.796875 3.625 -9.796875 C 3.894531 -9.796875 4.140625 -9.769531 4.359375 -9.71875 C 4.585938 -9.675781 4.785156 -9.625 4.953125 -9.5625 L 4.65625 -8.671875 C 4.519531 -8.710938 4.363281 -8.753906 4.1875 -8.796875 C 4.007812 -8.847656 3.828125 -8.875 3.640625 -8.875 C 3.265625 -8.875 2.984375 -8.742188 2.796875 -8.484375 C 2.609375 -8.234375 2.515625 -7.84375 2.515625 -7.3125 L 2.515625 -6.859375 L 4.25 -6.859375 Z M 4.25 -5.984375 "/>
</symbol>
<symbol overflow="visible" id="glyph0-38">
<path style="stroke:none;" d="M 2.203125 -4.640625 C 2.203125 -4.503906 2.191406 -4.328125 2.171875 -4.109375 C 2.160156 -3.890625 2.15625 -3.695312 2.15625 -3.53125 L 2.203125 -3.53125 C 2.253906 -3.601562 2.328125 -3.703125 2.421875 -3.828125 C 2.523438 -3.953125 2.628906 -4.082031 2.734375 -4.21875 C 2.847656 -4.351562 2.941406 -4.460938 3.015625 -4.546875 L 5.203125 -6.859375 L 6.53125 -6.859375 L 3.75 -3.921875 L 6.71875 0 L 5.359375 0 L 2.984375 -3.203125 L 2.203125 -2.515625 L 2.203125 0 L 1.09375 0 L 1.09375 -9.71875 L 2.203125 -9.71875 Z M 2.203125 -4.640625 "/>
</symbol>
<symbol overflow="visible" id="glyph0-39">
<path style="stroke:none;" d="M 5.203125 -4.828125 L 8.375 -4.828125 L 8.375 -0.34375 C 7.875 -0.1875 7.367188 -0.0703125 6.859375 0 C 6.359375 0.0820312 5.789062 0.125 5.15625 0.125 C 4.207031 0.125 3.410156 -0.0625 2.765625 -0.4375 C 2.117188 -0.820312 1.625 -1.363281 1.28125 -2.0625 C 0.945312 -2.769531 0.78125 -3.601562 0.78125 -4.5625 C 0.78125 -5.519531 0.96875 -6.347656 1.34375 -7.046875 C 1.71875 -7.742188 2.253906 -8.285156 2.953125 -8.671875 C 3.660156 -9.066406 4.515625 -9.265625 5.515625 -9.265625 C 6.023438 -9.265625 6.507812 -9.21875 6.96875 -9.125 C 7.425781 -9.03125 7.847656 -8.898438 8.234375 -8.734375 L 7.8125 -7.734375 C 7.476562 -7.878906 7.109375 -8 6.703125 -8.09375 C 6.304688 -8.195312 5.890625 -8.25 5.453125 -8.25 C 4.359375 -8.25 3.503906 -7.921875 2.890625 -7.265625 C 2.285156 -6.609375 1.984375 -5.707031 1.984375 -4.5625 C 1.984375 -3.84375 2.097656 -3.203125 2.328125 -2.640625 C 2.566406 -2.078125 2.9375 -1.640625 3.4375 -1.328125 C 3.945312 -1.023438 4.609375 -0.875 5.421875 -0.875 C 5.828125 -0.875 6.171875 -0.894531 6.453125 -0.9375 C 6.734375 -0.976562 6.988281 -1.03125 7.21875 -1.09375 L 7.21875 -3.796875 L 5.203125 -3.796875 Z M 5.203125 -4.828125 "/>
</symbol>
<symbol overflow="visible" id="glyph0-40">
<path style="stroke:none;" d="M 0.015625 -6.859375 L 1.21875 -6.859375 L 2.703125 -2.953125 C 2.828125 -2.609375 2.941406 -2.28125 3.046875 -1.96875 C 3.148438 -1.664062 3.226562 -1.375 3.28125 -1.09375 L 3.328125 -1.09375 C 3.378906 -1.300781 3.457031 -1.578125 3.5625 -1.921875 C 3.675781 -2.265625 3.796875 -2.613281 3.921875 -2.96875 L 5.3125 -6.859375 L 6.53125 -6.859375 L 3.578125 0.953125 C 3.335938 1.597656 3.023438 2.113281 2.640625 2.5 C 2.265625 2.882812 1.742188 3.078125 1.078125 3.078125 C 0.867188 3.078125 0.6875 3.0625 0.53125 3.03125 C 0.382812 3.007812 0.253906 2.988281 0.140625 2.96875 L 0.140625 2.078125 C 0.234375 2.085938 0.34375 2.101562 0.46875 2.125 C 0.601562 2.144531 0.742188 2.15625 0.890625 2.15625 C 1.285156 2.15625 1.601562 2.039062 1.84375 1.8125 C 2.09375 1.59375 2.285156 1.300781 2.421875 0.9375 L 2.78125 0.03125 Z M 0.015625 -6.859375 "/>
</symbol>
<symbol overflow="visible" id="glyph0-41">
<path style="stroke:none;" d="M 3.859375 -9.140625 C 4.992188 -9.140625 5.851562 -8.96875 6.4375 -8.625 C 7.019531 -8.289062 7.3125 -7.707031 7.3125 -6.875 C 7.3125 -6.332031 7.160156 -5.882812 6.859375 -5.53125 C 6.566406 -5.175781 6.140625 -4.945312 5.578125 -4.84375 L 5.578125 -4.78125 C 5.960938 -4.726562 6.3125 -4.617188 6.625 -4.453125 C 6.9375 -4.285156 7.179688 -4.050781 7.359375 -3.75 C 7.535156 -3.457031 7.625 -3.070312 7.625 -2.59375 C 7.625 -1.769531 7.335938 -1.128906 6.765625 -0.671875 C 6.203125 -0.222656 5.429688 0 4.453125 0 L 1.234375 0 L 1.234375 -9.140625 Z M 4.078125 -5.25 C 4.867188 -5.25 5.40625 -5.375 5.6875 -5.625 C 5.976562 -5.875 6.125 -6.25 6.125 -6.75 C 6.125 -7.25 5.945312 -7.609375 5.59375 -7.828125 C 5.238281 -8.046875 4.675781 -8.15625 3.90625 -8.15625 L 2.390625 -8.15625 L 2.390625 -5.25 Z M 2.390625 -4.28125 L 2.390625 -0.96875 L 4.234375 -0.96875 C 5.046875 -0.96875 5.609375 -1.125 5.921875 -1.4375 C 6.242188 -1.757812 6.40625 -2.175781 6.40625 -2.6875 C 6.40625 -3.164062 6.238281 -3.550781 5.90625 -3.84375 C 5.570312 -4.132812 4.984375 -4.28125 4.140625 -4.28125 Z M 2.390625 -4.28125 "/>
</symbol>
<symbol overflow="visible" id="glyph0-42">
<path style="stroke:none;" d="M 3.8125 0 L 0.515625 0 L 0.515625 -0.671875 L 1.59375 -0.90625 L 1.59375 -8.21875 L 0.515625 -8.46875 L 0.515625 -9.140625 L 3.8125 -9.140625 L 3.8125 -8.46875 L 2.734375 -8.21875 L 2.734375 -0.90625 L 3.8125 -0.671875 Z M 3.8125 0 "/>
</symbol>
<symbol overflow="visible" id="glyph0-43">
<path style="stroke:none;" d="M 8.234375 0 L 7.078125 0 L 7.078125 -4.265625 L 2.390625 -4.265625 L 2.390625 0 L 1.234375 0 L 1.234375 -9.140625 L 2.390625 -9.140625 L 2.390625 -5.265625 L 7.078125 -5.265625 L 7.078125 -9.140625 L 8.234375 -9.140625 Z M 8.234375 0 "/>
</symbol>
<symbol overflow="visible" id="glyph0-44">
<path style="stroke:none;" d="M 2.71875 -3.5 L 0.34375 -6.859375 L 1.625 -6.859375 L 3.390625 -4.28125 L 5.140625 -6.859375 L 6.40625 -6.859375 L 4.046875 -3.5 L 6.546875 0 L 5.265625 0 L 3.390625 -2.734375 L 1.5 0 L 0.234375 0 Z M 2.71875 -3.5 "/>
</symbol>
</g>
</defs>
<g id="surface54204">
<rect x="0" y="0" width="1175" height="585" style="fill:rgb(100%,100%,100%);fill-opacity:1;stroke:none;"/>
<path style="fill-rule:evenodd;fill:rgb(100%,100%,100%);fill-opacity:1;stroke-width:0.1;stroke-linecap:butt;stroke-linejoin:miter;stroke:rgb(0%,0%,0%);stroke-opacity:1;stroke-miterlimit:10;" d="M 21.700039 8.924961 C 21.700039 10.181406 20.188906 11.199961 18.325039 11.199961 C 16.460977 11.199961 14.950039 10.181406 14.950039 8.924961 C 14.950039 7.668516 16.460977 6.649961 18.325039 6.649961 C 20.188906 6.649961 21.700039 7.668516 21.700039 8.924961 " transform="matrix(20,0,0,20,323.8,102.45)"/>
<g style="fill:rgb(0%,0%,0%);fill-opacity:1;">
  <use xlink:href="#glyph0-1" x="641.800781" y="286.460341"/>
  <use xlink:href="#glyph0-2" x="651.523003" y="286.460341"/>
  <use xlink:href="#glyph0-3" x="661.523003" y="286.460341"/>
  <use xlink:href="#glyph0-4" x="668.745226" y="286.460341"/>
  <use xlink:href="#glyph0-5" x="676.800781" y="286.460341"/>
  <use xlink:href="#glyph0-6" x="680.134115" y="286.460341"/>
  <use xlink:href="#glyph0-7" x="691.800781" y="286.460341"/>
  <use xlink:href="#glyph0-8" x="699.023003" y="286.460341"/>
  <use xlink:href="#glyph0-5" x="706.800781" y="286.460341"/>
  <use xlink:href="#glyph0-9" x="710.134115" y="286.460341"/>
  <use xlink:href="#glyph0-7" x="719.578559" y="286.460341"/>
  <use xlink:href="#glyph0-10" x="726.523003" y="286.460341"/>
</g>
<path style="fill-rule:evenodd;fill:rgb(100%,100%,100%);fill-opacity:1;stroke-width:0.1;stroke-linecap:butt;stroke-linejoin:miter;stroke:rgb(0%,0%,0%);stroke-opacity:1;stroke-miterlimit:10;" d="M 7.76 8.459922 C 7.76 9.716367 6.248867 10.734922 4.385 10.734922 C 2.521133 10.734922 1.01 9.716367 1.01 8.459922 C 1.01 7.203477 2.521133 6.184922 4.385 6.184922 C 6.248867 6.184922 7.76 7.203477 7.76 8.459922 " transform="matrix(20,0,0,20,323.8,102.45)"/>
<g style="fill:rgb(0%,0%,0%);fill-opacity:1;">
  <use xlink:href="#glyph0-11" x="382.800781" y="274.460341"/>
  <use xlink:href="#glyph0-12" x="389.745226" y="274.460341"/>
  <use xlink:href="#glyph0-13" x="396.967448" y="274.460341"/>
  <use xlink:href="#glyph0-2" x="404.745226" y="274.460341"/>
  <use xlink:href="#glyph0-11" x="414.745226" y="274.460341"/>
  <use xlink:href="#glyph0-2" x="421.68967" y="274.460341"/>
  <use xlink:href="#glyph0-14" x="431.68967" y="274.460341"/>
</g>
<path style="fill-rule:evenodd;fill:rgb(100%,100%,100%);fill-opacity:1;stroke-width:0.1;stroke-linecap:butt;stroke-linejoin:miter;stroke:rgb(0%,0%,0%);stroke-opacity:1;stroke-miterlimit:10;" d="M 7.979922 -2.169961 C 7.979922 -0.913516 6.468984 0.105039 4.604922 0.105039 C 2.741055 0.105039 1.229922 -0.913516 1.229922 -2.169961 C 1.229922 -3.426406 2.741055 -4.444961 4.604922 -4.444961 C 6.468984 -4.444961 7.979922 -3.426406 7.979922 -2.169961 " transform="matrix(20,0,0,20,323.8,102.45)"/>
<g style="fill:rgb(0%,0%,0%);fill-opacity:1;">
  <use xlink:href="#glyph0-15" x="376.199219" y="56.862684"/>
  <use xlink:href="#glyph0-16" x="387.865885" y="56.862684"/>
  <use xlink:href="#glyph0-17" x="395.643663" y="56.862684"/>
  <use xlink:href="#glyph0-7" x="398.976997" y="56.862684"/>
  <use xlink:href="#glyph0-18" x="406.199219" y="56.862684"/>
  <use xlink:href="#glyph0-7" x="411.199219" y="56.862684"/>
  <use xlink:href="#glyph0-19" x="418.421441" y="56.862684"/>
  <use xlink:href="#glyph0-5" x="424.532552" y="56.862684"/>
  <use xlink:href="#glyph0-15" x="427.865885" y="56.862684"/>
  <use xlink:href="#glyph0-20" x="439.532552" y="56.862684"/>
  <use xlink:href="#glyph0-21" x="446.754774" y="56.862684"/>
  <use xlink:href="#glyph0-22" x="454.532552" y="56.862684"/>
  <use xlink:href="#glyph0-19" x="462.31033" y="56.862684"/>
</g>
<g style="fill:rgb(0%,0%,0%);fill-opacity:1;">
  <use xlink:href="#glyph0-20" x="376.199219" y="72.862684"/>
  <use xlink:href="#glyph0-5" x="383.421441" y="72.862684"/>
  <use xlink:href="#glyph0-23" x="386.754774" y="72.862684"/>
  <use xlink:href="#glyph0-20" x="390.088108" y="72.862684"/>
  <use xlink:href="#glyph0-5" x="397.31033" y="72.862684"/>
  <use xlink:href="#glyph0-2" x="400.643663" y="72.862684"/>
  <use xlink:href="#glyph0-8" x="410.643663" y="72.862684"/>
  <use xlink:href="#glyph0-18" x="418.421441" y="72.862684"/>
  <use xlink:href="#glyph0-20" x="423.421441" y="72.862684"/>
</g>
<path style="fill-rule:evenodd;fill:rgb(100%,100%,100%);fill-opacity:1;stroke-width:0.1;stroke-linecap:butt;stroke-linejoin:miter;stroke:rgb(0%,0%,0%);stroke-opacity:1;stroke-miterlimit:10;" d="M 29.01 3.209922 C 29.01 4.466367 27.498867 5.484922 25.635 5.484922 C 23.771133 5.484922 22.26 4.466367 22.26 3.209922 C 22.26 1.953477 23.771133 0.934922 25.635 0.934922 C 27.498867 0.934922 29.01 1.953477 29.01 3.209922 " transform="matrix(20,0,0,20,323.8,102.45)"/>
<g style="fill:rgb(0%,0%,0%);fill-opacity:1;">
  <use xlink:href="#glyph0-11" x="796.800781" y="164.460341"/>
  <use xlink:href="#glyph0-22" x="803.745226" y="164.460341"/>
  <use xlink:href="#glyph0-24" x="811.523003" y="164.460341"/>
  <use xlink:href="#glyph0-25" x="817.634115" y="164.460341"/>
  <use xlink:href="#glyph0-20" x="820.967448" y="164.460341"/>
  <use xlink:href="#glyph0-23" x="828.18967" y="164.460341"/>
  <use xlink:href="#glyph0-5" x="831.523003" y="164.460341"/>
  <use xlink:href="#glyph0-26" x="834.856337" y="164.460341"/>
  <use xlink:href="#glyph0-16" x="838.467448" y="164.460341"/>
  <use xlink:href="#glyph0-19" x="846.245226" y="164.460341"/>
  <use xlink:href="#glyph0-27" x="852.356337" y="164.460341"/>
  <use xlink:href="#glyph0-25" x="857.078559" y="164.460341"/>
  <use xlink:href="#glyph0-24" x="860.411892" y="164.460341"/>
  <use xlink:href="#glyph0-7" x="866.523003" y="164.460341"/>
</g>
<g style="fill:rgb(0%,0%,0%);fill-opacity:1;">
  <use xlink:href="#glyph0-13" x="796.800781" y="180.460341"/>
  <use xlink:href="#glyph0-22" x="804.856337" y="180.460341"/>
  <use xlink:href="#glyph0-28" x="812.634115" y="180.460341"/>
  <use xlink:href="#glyph0-29" x="824.578559" y="180.460341"/>
  <use xlink:href="#glyph0-16" x="832.356337" y="180.460341"/>
  <use xlink:href="#glyph0-27" x="840.134115" y="180.460341"/>
  <use xlink:href="#glyph0-25" x="844.856337" y="180.460341"/>
  <use xlink:href="#glyph0-21" x="848.18967" y="180.460341"/>
  <use xlink:href="#glyph0-30" x="855.967448" y="180.460341"/>
</g>
<path style="fill-rule:evenodd;fill:rgb(100%,100%,100%);fill-opacity:1;stroke-width:0.1;stroke-linecap:butt;stroke-linejoin:miter;stroke:rgb(0%,0%,0%);stroke-opacity:1;stroke-miterlimit:10;" d="M 15.319961 3.295078 C 15.319961 4.551523 13.809023 5.570078 11.944961 5.570078 C 10.081094 5.570078 8.569961 4.551523 8.569961 3.295078 C 8.569961 2.038633 10.081094 1.020078 11.944961 1.020078 C 13.809023 1.020078 15.319961 2.038633 15.319961 3.295078 " transform="matrix(20,0,0,20,323.8,102.45)"/>
<g style="fill:rgb(0%,0%,0%);fill-opacity:1;">
  <use xlink:href="#glyph0-26" x="520" y="171.159559"/>
  <use xlink:href="#glyph0-7" x="523.611111" y="171.159559"/>
  <use xlink:href="#glyph0-27" x="530.833333" y="171.159559"/>
  <use xlink:href="#glyph0-18" x="535.555556" y="171.159559"/>
  <use xlink:href="#glyph0-22" x="540.555556" y="171.159559"/>
  <use xlink:href="#glyph0-5" x="548.333333" y="171.159559"/>
  <use xlink:href="#glyph0-6" x="551.666667" y="171.159559"/>
  <use xlink:href="#glyph0-7" x="563.333333" y="171.159559"/>
  <use xlink:href="#glyph0-8" x="570.555556" y="171.159559"/>
  <use xlink:href="#glyph0-5" x="578.333333" y="171.159559"/>
  <use xlink:href="#glyph0-9" x="581.666667" y="171.159559"/>
  <use xlink:href="#glyph0-7" x="591.111111" y="171.159559"/>
  <use xlink:href="#glyph0-10" x="598.055556" y="171.159559"/>
</g>
<path style="fill-rule:evenodd;fill:rgb(100%,100%,100%);fill-opacity:1;stroke-width:0.1;stroke-linecap:butt;stroke-linejoin:miter;stroke:rgb(0%,0%,0%);stroke-opacity:1;stroke-miterlimit:10;" d="M 14.81 14.909922 C 14.81 16.166367 13.298867 17.184922 11.435 17.184922 C 9.571133 17.184922 8.06 16.166367 8.06 14.909922 C 8.06 13.653477 9.571133 12.634922 11.435 12.634922 C 13.298867 12.634922 14.81 13.653477 14.81 14.909922 " transform="matrix(20,0,0,20,323.8,102.45)"/>
<g style="fill:rgb(0%,0%,0%);fill-opacity:1;">
  <use xlink:href="#glyph0-11" x="500.800781" y="398.460341"/>
  <use xlink:href="#glyph0-20" x="507.745226" y="398.460341"/>
  <use xlink:href="#glyph0-21" x="514.967448" y="398.460341"/>
  <use xlink:href="#glyph0-27" x="522.745226" y="398.460341"/>
  <use xlink:href="#glyph0-7" x="527.467448" y="398.460341"/>
  <use xlink:href="#glyph0-25" x="534.68967" y="398.460341"/>
  <use xlink:href="#glyph0-21" x="538.023003" y="398.460341"/>
</g>
<g style="fill:rgb(0%,0%,0%);fill-opacity:1;">
  <use xlink:href="#glyph0-31" x="500.800781" y="414.460341"/>
  <use xlink:href="#glyph0-18" x="507.467448" y="414.460341"/>
  <use xlink:href="#glyph0-7" x="512.467448" y="414.460341"/>
  <use xlink:href="#glyph0-7" x="519.68967" y="414.460341"/>
  <use xlink:href="#glyph0-23" x="526.911892" y="414.460341"/>
  <use xlink:href="#glyph0-20" x="530.245226" y="414.460341"/>
  <use xlink:href="#glyph0-21" x="537.467448" y="414.460341"/>
  <use xlink:href="#glyph0-24" x="545.245226" y="414.460341"/>
  <use xlink:href="#glyph0-7" x="551.356337" y="414.460341"/>
  <use xlink:href="#glyph0-5" x="558.578559" y="414.460341"/>
  <use xlink:href="#glyph0-11" x="561.911892" y="414.460341"/>
  <use xlink:href="#glyph0-27" x="568.856337" y="414.460341"/>
  <use xlink:href="#glyph0-16" x="573.578559" y="414.460341"/>
  <use xlink:href="#glyph0-32" x="581.356337" y="414.460341"/>
  <use xlink:href="#glyph0-25" x="589.134115" y="414.460341"/>
  <use xlink:href="#glyph0-22" x="592.467448" y="414.460341"/>
</g>
<path style="fill-rule:evenodd;fill:rgb(100%,100%,100%);fill-opacity:1;stroke-width:0.1;stroke-linecap:butt;stroke-linejoin:miter;stroke:rgb(0%,0%,0%);stroke-opacity:1;stroke-miterlimit:10;" d="M 13.840078 21.015 C 13.840078 22.271445 12.328945 23.29 10.465078 23.29 C 8.601016 23.29 7.090078 22.271445 7.090078 21.015 C 7.090078 19.758555 8.601016 18.74 10.465078 18.74 C 12.328945 18.74 13.840078 19.758555 13.840078 21.015 " transform="matrix(20,0,0,20,323.8,102.45)"/>
<g style="fill:rgb(0%,0%,0%);fill-opacity:1;">
  <use xlink:href="#glyph0-9" x="485.398438" y="528.561903"/>
  <use xlink:href="#glyph0-1" x="494.842882" y="528.561903"/>
  <use xlink:href="#glyph0-2" x="504.565104" y="528.561903"/>
  <use xlink:href="#glyph0-3" x="514.565104" y="528.561903"/>
  <use xlink:href="#glyph0-4" x="521.787326" y="528.561903"/>
  <use xlink:href="#glyph0-5" x="529.842882" y="528.561903"/>
  <use xlink:href="#glyph0-13" x="533.176215" y="528.561903"/>
  <use xlink:href="#glyph0-22" x="541.231771" y="528.561903"/>
  <use xlink:href="#glyph0-16" x="549.009549" y="528.561903"/>
  <use xlink:href="#glyph0-21" x="556.787326" y="528.561903"/>
  <use xlink:href="#glyph0-24" x="564.565104" y="528.561903"/>
  <use xlink:href="#glyph0-25" x="570.676215" y="528.561903"/>
  <use xlink:href="#glyph0-23" x="574.009549" y="528.561903"/>
</g>
<path style="fill-rule:evenodd;fill:rgb(100%,100%,100%);fill-opacity:1;stroke-width:0.1;stroke-linecap:butt;stroke-linejoin:miter;stroke:rgb(0%,0%,0%);stroke-opacity:1;stroke-miterlimit:10;" d="M 32.250039 10.599961 C 32.250039 11.856406 30.738906 12.874961 28.875039 12.874961 C 27.010977 12.874961 25.500039 11.856406 25.500039 10.599961 C 25.500039 9.343516 27.010977 8.324961 28.875039 8.324961 C 30.738906 8.324961 32.250039 9.343516 32.250039 10.599961 " transform="matrix(20,0,0,20,323.8,102.45)"/>
<g style="fill:rgb(0%,0%,0%);fill-opacity:1;">
  <use xlink:href="#glyph0-4" x="858.601562" y="312.261122"/>
  <use xlink:href="#glyph0-18" x="866.657118" y="312.261122"/>
  <use xlink:href="#glyph0-23" x="871.934896" y="312.261122"/>
  <use xlink:href="#glyph0-25" x="875.268229" y="312.261122"/>
  <use xlink:href="#glyph0-21" x="878.601562" y="312.261122"/>
  <use xlink:href="#glyph0-30" x="886.37934" y="312.261122"/>
  <use xlink:href="#glyph0-27" x="894.157118" y="312.261122"/>
  <use xlink:href="#glyph0-22" x="898.87934" y="312.261122"/>
  <use xlink:href="#glyph0-21" x="906.657118" y="312.261122"/>
</g>
<g style="fill:rgb(0%,0%,0%);fill-opacity:1;">
  <use xlink:href="#glyph0-33" x="858.601562" y="328.261122"/>
  <use xlink:href="#glyph0-16" x="866.37934" y="328.261122"/>
  <use xlink:href="#glyph0-8" x="874.157118" y="328.261122"/>
  <use xlink:href="#glyph0-23" x="881.934896" y="328.261122"/>
  <use xlink:href="#glyph0-25" x="885.268229" y="328.261122"/>
  <use xlink:href="#glyph0-24" x="888.601562" y="328.261122"/>
  <use xlink:href="#glyph0-5" x="894.712674" y="328.261122"/>
  <use xlink:href="#glyph0-11" x="898.046007" y="328.261122"/>
  <use xlink:href="#glyph0-24" x="904.990451" y="328.261122"/>
  <use xlink:href="#glyph0-34" x="911.101563" y="328.261122"/>
  <use xlink:href="#glyph0-22" x="918.87934" y="328.261122"/>
  <use xlink:href="#glyph0-22" x="926.657118" y="328.261122"/>
  <use xlink:href="#glyph0-23" x="934.434896" y="328.261122"/>
  <use xlink:href="#glyph0-19" x="937.768229" y="328.261122"/>
</g>
<path style="fill-rule:evenodd;fill:rgb(100%,100%,100%);fill-opacity:1;stroke-width:0.1;stroke-linecap:butt;stroke-linejoin:miter;stroke:rgb(0%,0%,0%);stroke-opacity:1;stroke-miterlimit:10;" d="M -7.170078 21.767539 C -7.170078 23.023984 -8.681016 24.042539 -10.545078 24.042539 C -12.408945 24.042539 -13.920078 23.023984 -13.920078 21.767539 C -13.920078 20.511094 -12.408945 19.492539 -10.545078 19.492539 C -8.681016 19.492539 -7.170078 20.511094 -7.170078 21.767539 " transform="matrix(20,0,0,20,323.8,102.45)"/>
<g style="fill:rgb(0%,0%,0%);fill-opacity:1;">
  <use xlink:href="#glyph0-35" x="63.199219" y="534.612684"/>
  <use xlink:href="#glyph0-36" x="72.365885" y="534.612684"/>
  <use xlink:href="#glyph0-11" x="75.699219" y="534.612684"/>
  <use xlink:href="#glyph0-36" x="82.643663" y="534.612684"/>
  <use xlink:href="#glyph0-5" x="85.976997" y="534.612684"/>
  <use xlink:href="#glyph0-31" x="89.31033" y="534.612684"/>
  <use xlink:href="#glyph0-7" x="95.976997" y="534.612684"/>
  <use xlink:href="#glyph0-32" x="103.199219" y="534.612684"/>
  <use xlink:href="#glyph0-7" x="110.976997" y="534.612684"/>
  <use xlink:href="#glyph0-18" x="118.199219" y="534.612684"/>
  <use xlink:href="#glyph0-20" x="123.199219" y="534.612684"/>
  <use xlink:href="#glyph0-27" x="130.421441" y="534.612684"/>
  <use xlink:href="#glyph0-25" x="135.143663" y="534.612684"/>
  <use xlink:href="#glyph0-22" x="138.476997" y="534.612684"/>
  <use xlink:href="#glyph0-21" x="146.254774" y="534.612684"/>
</g>
<g style="fill:rgb(0%,0%,0%);fill-opacity:1;">
  <use xlink:href="#glyph0-22" x="63.199219" y="550.612684"/>
  <use xlink:href="#glyph0-37" x="70.976997" y="550.612684"/>
  <use xlink:href="#glyph0-5" x="75.421441" y="550.612684"/>
  <use xlink:href="#glyph0-6" x="78.754774" y="550.612684"/>
  <use xlink:href="#glyph0-22" x="90.421441" y="550.612684"/>
  <use xlink:href="#glyph0-18" x="98.199219" y="550.612684"/>
  <use xlink:href="#glyph0-38" x="103.476997" y="550.612684"/>
  <use xlink:href="#glyph0-7" x="110.421441" y="550.612684"/>
  <use xlink:href="#glyph0-18" x="117.643663" y="550.612684"/>
  <use xlink:href="#glyph0-5" x="122.921441" y="550.612684"/>
  <use xlink:href="#glyph0-13" x="126.254774" y="550.612684"/>
  <use xlink:href="#glyph0-22" x="134.31033" y="550.612684"/>
  <use xlink:href="#glyph0-22" x="142.088108" y="550.612684"/>
  <use xlink:href="#glyph0-29" x="149.865885" y="550.612684"/>
  <use xlink:href="#glyph0-19" x="157.643663" y="550.612684"/>
</g>
<path style="fill-rule:evenodd;fill:rgb(100%,100%,100%);fill-opacity:1;stroke-width:0.1;stroke-linecap:butt;stroke-linejoin:miter;stroke:rgb(0%,0%,0%);stroke-opacity:1;stroke-miterlimit:10;" d="M 34.519961 20.782578 C 34.519961 22.039023 33.009023 23.057578 31.144961 23.057578 C 29.281094 23.057578 27.769961 22.039023 27.769961 20.782578 C 27.769961 19.526133 29.281094 18.507578 31.144961 18.507578 C 33.009023 18.507578 34.519961 19.526133 34.519961 20.782578 " transform="matrix(20,0,0,20,323.8,102.45)"/>
<g style="fill:rgb(0%,0%,0%);fill-opacity:1;">
  <use xlink:href="#glyph0-39" x="907" y="515.909559"/>
  <use xlink:href="#glyph0-7" x="916.444444" y="515.909559"/>
  <use xlink:href="#glyph0-22" x="923.666667" y="515.909559"/>
  <use xlink:href="#glyph0-18" x="931.444444" y="515.909559"/>
  <use xlink:href="#glyph0-30" x="936.722222" y="515.909559"/>
  <use xlink:href="#glyph0-7" x="944.5" y="515.909559"/>
  <use xlink:href="#glyph0-5" x="951.722222" y="515.909559"/>
  <use xlink:href="#glyph0-15" x="955.055556" y="515.909559"/>
  <use xlink:href="#glyph0-20" x="966.722222" y="515.909559"/>
  <use xlink:href="#glyph0-19" x="973.944444" y="515.909559"/>
  <use xlink:href="#glyph0-22" x="980.055556" y="515.909559"/>
  <use xlink:href="#glyph0-21" x="987.833333" y="515.909559"/>
</g>
<g style="fill:rgb(0%,0%,0%);fill-opacity:1;">
  <use xlink:href="#glyph0-35" x="907" y="531.909559"/>
  <use xlink:href="#glyph0-21" x="916.444444" y="531.909559"/>
  <use xlink:href="#glyph0-25" x="924.222222" y="531.909559"/>
  <use xlink:href="#glyph0-10" x="927.555556" y="531.909559"/>
  <use xlink:href="#glyph0-7" x="933.944444" y="531.909559"/>
  <use xlink:href="#glyph0-18" x="941.166667" y="531.909559"/>
  <use xlink:href="#glyph0-19" x="946.444444" y="531.909559"/>
  <use xlink:href="#glyph0-25" x="952.555556" y="531.909559"/>
  <use xlink:href="#glyph0-27" x="955.888889" y="531.909559"/>
  <use xlink:href="#glyph0-40" x="960.611111" y="531.909559"/>
</g>
<path style="fill-rule:evenodd;fill:rgb(100%,100%,100%);fill-opacity:1;stroke-width:0.1;stroke-linecap:butt;stroke-linejoin:miter;stroke:rgb(0%,0%,0%);stroke-opacity:1;stroke-miterlimit:10;" d="M -0.459922 -2.7475 C -0.459922 -1.491055 -1.971055 -0.4725 -3.834922 -0.4725 C -5.698984 -0.4725 -7.209922 -1.491055 -7.209922 -2.7475 C -7.209922 -4.003945 -5.698984 -5.0225 -3.834922 -5.0225 C -1.971055 -5.0225 -0.459922 -4.003945 -0.459922 -2.7475 " transform="matrix(20,0,0,20,323.8,102.45)"/>
<g style="fill:rgb(0%,0%,0%);fill-opacity:1;">
  <use xlink:href="#glyph0-15" x="206.398438" y="50.311903"/>
  <use xlink:href="#glyph0-20" x="218.065104" y="50.311903"/>
  <use xlink:href="#glyph0-30" x="225.287326" y="50.311903"/>
  <use xlink:href="#glyph0-25" x="233.065104" y="50.311903"/>
  <use xlink:href="#glyph0-24" x="236.398438" y="50.311903"/>
  <use xlink:href="#glyph0-5" x="242.509549" y="50.311903"/>
  <use xlink:href="#glyph0-41" x="245.842882" y="50.311903"/>
  <use xlink:href="#glyph0-18" x="254.176215" y="50.311903"/>
  <use xlink:href="#glyph0-22" x="259.176215" y="50.311903"/>
  <use xlink:href="#glyph0-22" x="266.953993" y="50.311903"/>
  <use xlink:href="#glyph0-28" x="274.731771" y="50.311903"/>
</g>
<path style="fill-rule:evenodd;fill:rgb(100%,100%,100%);fill-opacity:1;stroke-width:0.1;stroke-linecap:butt;stroke-linejoin:miter;stroke:rgb(0%,0%,0%);stroke-opacity:1;stroke-miterlimit:10;" d="M -9.34 5.384922 C -9.34 6.641367 -10.851133 7.659922 -12.715 7.659922 C -14.578867 7.659922 -16.09 6.641367 -16.09 5.384922 C -16.09 4.128477 -14.578867 3.109922 -12.715 3.109922 C -10.851133 3.109922 -9.34 4.128477 -9.34 5.384922 " transform="matrix(20,0,0,20,323.8,102.45)"/>
<g style="fill:rgb(0%,0%,0%);fill-opacity:1;">
  <use xlink:href="#glyph0-42" x="29.800781" y="200.960341"/>
  <use xlink:href="#glyph0-21" x="34.245226" y="200.960341"/>
  <use xlink:href="#glyph0-27" x="42.023003" y="200.960341"/>
  <use xlink:href="#glyph0-7" x="46.745226" y="200.960341"/>
  <use xlink:href="#glyph0-18" x="53.967448" y="200.960341"/>
  <use xlink:href="#glyph0-21" x="59.245226" y="200.960341"/>
  <use xlink:href="#glyph0-20" x="67.023003" y="200.960341"/>
  <use xlink:href="#glyph0-27" x="74.245226" y="200.960341"/>
  <use xlink:href="#glyph0-25" x="78.967448" y="200.960341"/>
  <use xlink:href="#glyph0-22" x="82.300781" y="200.960341"/>
  <use xlink:href="#glyph0-21" x="90.078559" y="200.960341"/>
  <use xlink:href="#glyph0-20" x="97.856337" y="200.960341"/>
  <use xlink:href="#glyph0-23" x="105.078559" y="200.960341"/>
</g>
<g style="fill:rgb(0%,0%,0%);fill-opacity:1;">
  <use xlink:href="#glyph0-13" x="29.800781" y="216.960341"/>
  <use xlink:href="#glyph0-22" x="37.856337" y="216.960341"/>
  <use xlink:href="#glyph0-22" x="45.634115" y="216.960341"/>
  <use xlink:href="#glyph0-29" x="53.411892" y="216.960341"/>
  <use xlink:href="#glyph0-7" x="61.18967" y="216.960341"/>
  <use xlink:href="#glyph0-18" x="68.411892" y="216.960341"/>
  <use xlink:href="#glyph0-20" x="73.411892" y="216.960341"/>
  <use xlink:href="#glyph0-27" x="80.634115" y="216.960341"/>
  <use xlink:href="#glyph0-25" x="85.356337" y="216.960341"/>
  <use xlink:href="#glyph0-10" x="88.68967" y="216.960341"/>
  <use xlink:href="#glyph0-7" x="95.078559" y="216.960341"/>
</g>
<g style="fill:rgb(0%,0%,0%);fill-opacity:1;">
  <use xlink:href="#glyph0-4" x="29.800781" y="232.960341"/>
  <use xlink:href="#glyph0-23" x="37.856337" y="232.960341"/>
  <use xlink:href="#glyph0-23" x="41.18967" y="232.960341"/>
  <use xlink:href="#glyph0-25" x="44.523003" y="232.960341"/>
  <use xlink:href="#glyph0-20" x="47.856337" y="232.960341"/>
  <use xlink:href="#glyph0-21" x="55.078559" y="232.960341"/>
  <use xlink:href="#glyph0-24" x="62.856337" y="232.960341"/>
  <use xlink:href="#glyph0-7" x="68.967448" y="232.960341"/>
</g>
<path style="fill:none;stroke-width:0.1;stroke-linecap:butt;stroke-linejoin:miter;stroke:rgb(0%,0%,0%);stroke-opacity:1;stroke-miterlimit:10;" d="M 14.636367 5.361484 L 15.668594 6.911094 " transform="matrix(20,0,0,20,323.8,102.45)"/>
<path style="fill-rule:evenodd;fill:rgb(0%,0%,0%);fill-opacity:1;stroke-width:0.1;stroke-linecap:butt;stroke-linejoin:miter;stroke:rgb(0%,0%,0%);stroke-opacity:1;stroke-miterlimit:10;" d="M 14.844375 5.222813 L 14.359219 4.945273 L 14.428359 5.499961 Z M 14.844375 5.222813 " transform="matrix(20,0,0,20,323.8,102.45)"/>
<path style="fill-rule:evenodd;fill:rgb(0%,0%,0%);fill-opacity:1;stroke-width:0.1;stroke-linecap:butt;stroke-linejoin:miter;stroke:rgb(0%,0%,0%);stroke-opacity:1;stroke-miterlimit:10;" d="M 15.876602 7.223203 L 15.39125 6.945664 L 15.668594 6.911094 L 15.807461 6.668516 Z M 15.876602 7.223203 " transform="matrix(20,0,0,20,323.8,102.45)"/>
<path style="fill:none;stroke-width:0.1;stroke-linecap:butt;stroke-linejoin:miter;stroke:rgb(0%,0%,0%);stroke-opacity:1;stroke-miterlimit:10;" d="M 14.172891 12.878086 L 15.639102 11.11207 " transform="matrix(20,0,0,20,323.8,102.45)"/>
<path style="fill-rule:evenodd;fill:rgb(0%,0%,0%);fill-opacity:1;stroke-width:0.1;stroke-linecap:butt;stroke-linejoin:miter;stroke:rgb(0%,0%,0%);stroke-opacity:1;stroke-miterlimit:10;" d="M 13.980508 12.718516 L 13.853359 13.262852 L 14.365078 13.037852 Z M 13.980508 12.718516 " transform="matrix(20,0,0,20,323.8,102.45)"/>
<path style="fill-rule:evenodd;fill:rgb(0%,0%,0%);fill-opacity:1;stroke-width:0.1;stroke-linecap:butt;stroke-linejoin:miter;stroke:rgb(0%,0%,0%);stroke-opacity:1;stroke-miterlimit:10;" d="M 15.878555 10.823594 L 15.751602 11.36793 L 15.639102 11.11207 L 15.366836 11.048594 Z M 15.878555 10.823594 " transform="matrix(20,0,0,20,323.8,102.45)"/>
<path style="fill:none;stroke-width:0.1;stroke-linecap:butt;stroke-linejoin:miter;stroke:rgb(0%,0%,0%);stroke-opacity:1;stroke-miterlimit:10;" d="M 21.103359 6.93043 L 22.901602 5.160117 " transform="matrix(20,0,0,20,323.8,102.45)"/>
<path style="fill-rule:evenodd;fill:rgb(0%,0%,0%);fill-opacity:1;stroke-width:0.1;stroke-linecap:butt;stroke-linejoin:miter;stroke:rgb(0%,0%,0%);stroke-opacity:1;stroke-miterlimit:10;" d="M 20.927969 6.752305 L 20.747109 7.281211 L 21.27875 7.108555 Z M 20.927969 6.752305 " transform="matrix(20,0,0,20,323.8,102.45)"/>
<path style="fill-rule:evenodd;fill:rgb(0%,0%,0%);fill-opacity:1;stroke-width:0.1;stroke-linecap:butt;stroke-linejoin:miter;stroke:rgb(0%,0%,0%);stroke-opacity:1;stroke-miterlimit:10;" d="M 23.168789 4.897031 L 22.98793 5.426133 L 22.901602 5.160117 L 22.637148 5.069688 Z M 23.168789 4.897031 " transform="matrix(20,0,0,20,323.8,102.45)"/>
<path style="fill:none;stroke-width:0.1;stroke-linecap:butt;stroke-linejoin:miter;stroke:rgb(0%,0%,0%);stroke-opacity:1;stroke-miterlimit:10;" d="M 15.869961 3.288242 L 21.773281 3.215977 " transform="matrix(20,0,0,20,323.8,102.45)"/>
<path style="fill-rule:evenodd;fill:rgb(0%,0%,0%);fill-opacity:1;stroke-width:0.1;stroke-linecap:butt;stroke-linejoin:miter;stroke:rgb(0%,0%,0%);stroke-opacity:1;stroke-miterlimit:10;" d="M 15.866836 3.038242 L 15.369961 3.294297 L 15.873086 3.538242 Z M 15.866836 3.038242 " transform="matrix(20,0,0,20,323.8,102.45)"/>
<path style="fill-rule:evenodd;fill:rgb(0%,0%,0%);fill-opacity:1;stroke-width:0.1;stroke-linecap:butt;stroke-linejoin:miter;stroke:rgb(0%,0%,0%);stroke-opacity:1;stroke-miterlimit:10;" d="M 22.148281 3.211289 L 21.651211 3.467539 L 21.773281 3.215977 L 21.645156 2.967539 Z M 22.148281 3.211289 " transform="matrix(20,0,0,20,323.8,102.45)"/>
<path style="fill:none;stroke-width:0.1;stroke-linecap:butt;stroke-linejoin:miter;stroke:rgb(0%,0%,0%);stroke-opacity:1;stroke-miterlimit:10;" d="M 8.482461 8.613828 L 14.463711 8.901523 " transform="matrix(20,0,0,20,323.8,102.45)"/>
<path style="fill-rule:evenodd;fill:rgb(0%,0%,0%);fill-opacity:1;stroke-width:0.1;stroke-linecap:butt;stroke-linejoin:miter;stroke:rgb(0%,0%,0%);stroke-opacity:1;stroke-miterlimit:10;" d="M 8.49457 8.364219 L 7.983047 8.589805 L 8.470547 8.863633 Z M 8.49457 8.364219 " transform="matrix(20,0,0,20,323.8,102.45)"/>
<path style="fill-rule:evenodd;fill:rgb(0%,0%,0%);fill-opacity:1;stroke-width:0.1;stroke-linecap:butt;stroke-linejoin:miter;stroke:rgb(0%,0%,0%);stroke-opacity:1;stroke-miterlimit:10;" d="M 14.83832 8.919688 L 14.326797 9.145273 L 14.463711 8.901523 L 14.35082 8.645859 Z M 14.83832 8.919688 " transform="matrix(20,0,0,20,323.8,102.45)"/>
<path style="fill:none;stroke-width:0.1;stroke-linecap:butt;stroke-linejoin:miter;stroke:rgb(0%,0%,0%);stroke-opacity:1;stroke-miterlimit:10;" d="M 13.15668 18.948789 L 18.054922 11.605039 " transform="matrix(20,0,0,20,323.8,102.45)"/>
<path style="fill-rule:evenodd;fill:rgb(0%,0%,0%);fill-opacity:1;stroke-width:0.1;stroke-linecap:butt;stroke-linejoin:miter;stroke:rgb(0%,0%,0%);stroke-opacity:1;stroke-miterlimit:10;" d="M 12.948672 18.809922 L 12.879336 19.364609 L 13.364687 19.087461 Z M 12.948672 18.809922 " transform="matrix(20,0,0,20,323.8,102.45)"/>
<path style="fill-rule:evenodd;fill:rgb(0%,0%,0%);fill-opacity:1;stroke-width:0.1;stroke-linecap:butt;stroke-linejoin:miter;stroke:rgb(0%,0%,0%);stroke-opacity:1;stroke-miterlimit:10;" d="M 18.26293 11.29293 L 18.193594 11.847617 L 18.054922 11.605039 L 17.777578 11.570273 Z M 18.26293 11.29293 " transform="matrix(20,0,0,20,323.8,102.45)"/>
<path style="fill:none;stroke-width:0.1;stroke-linecap:butt;stroke-linejoin:miter;stroke:rgb(0%,0%,0%);stroke-opacity:1;stroke-miterlimit:10;" d="M 7.636172 18.876719 L 4.565469 11.18707 " transform="matrix(20,0,0,20,323.8,102.45)"/>
<path style="fill-rule:evenodd;fill:rgb(0%,0%,0%);fill-opacity:1;stroke-width:0.1;stroke-linecap:butt;stroke-linejoin:miter;stroke:rgb(0%,0%,0%);stroke-opacity:1;stroke-miterlimit:10;" d="M 7.403945 18.969492 L 7.821523 19.340977 L 7.868398 18.783945 Z M 7.403945 18.969492 " transform="matrix(20,0,0,20,323.8,102.45)"/>
<path style="fill-rule:evenodd;fill:rgb(0%,0%,0%);fill-opacity:1;stroke-width:0.1;stroke-linecap:butt;stroke-linejoin:miter;stroke:rgb(0%,0%,0%);stroke-opacity:1;stroke-miterlimit:10;" d="M 4.426406 10.838828 L 4.843984 11.210508 L 4.565469 11.18707 L 4.379727 11.395859 Z M 4.426406 10.838828 " transform="matrix(20,0,0,20,323.8,102.45)"/>
<path style="fill:none;stroke-width:0.1;stroke-linecap:butt;stroke-linejoin:miter;stroke:rgb(0%,0%,0%);stroke-opacity:1;stroke-dasharray:0.1,0.1;stroke-miterlimit:10;" d="M 7.246328 6.573789 L 9.282266 5.383164 " transform="matrix(20,0,0,20,323.8,102.45)"/>
<path style="fill-rule:evenodd;fill:rgb(0%,0%,0%);fill-opacity:1;stroke-width:0.1;stroke-linecap:butt;stroke-linejoin:miter;stroke:rgb(0%,0%,0%);stroke-opacity:1;stroke-miterlimit:10;" d="M 7.120156 6.357969 L 6.814688 6.826133 L 7.3725 6.789609 Z M 7.120156 6.357969 " transform="matrix(20,0,0,20,323.8,102.45)"/>
<path style="fill-rule:evenodd;fill:rgb(0%,0%,0%);fill-opacity:1;stroke-width:0.1;stroke-linecap:butt;stroke-linejoin:miter;stroke:rgb(0%,0%,0%);stroke-opacity:1;stroke-miterlimit:10;" d="M 9.606094 5.193906 L 9.300625 5.66207 L 9.282266 5.383164 L 9.048281 5.23043 Z M 9.606094 5.193906 " transform="matrix(20,0,0,20,323.8,102.45)"/>
<path style="fill:none;stroke-width:0.1;stroke-linecap:butt;stroke-linejoin:miter;stroke:rgb(0%,0%,0%);stroke-opacity:1;stroke-miterlimit:10;" d="M 4.404922 5.635313 L 4.587344 0.591563 " transform="matrix(20,0,0,20,323.8,102.45)"/>
<path style="fill-rule:evenodd;fill:rgb(0%,0%,0%);fill-opacity:1;stroke-width:0.1;stroke-linecap:butt;stroke-linejoin:miter;stroke:rgb(0%,0%,0%);stroke-opacity:1;stroke-miterlimit:10;" d="M 4.155117 5.626328 L 4.386758 6.135117 L 4.654727 5.644492 Z M 4.155117 5.626328 " transform="matrix(20,0,0,20,323.8,102.45)"/>
<path style="fill-rule:evenodd;fill:rgb(0%,0%,0%);fill-opacity:1;stroke-width:0.1;stroke-linecap:butt;stroke-linejoin:miter;stroke:rgb(0%,0%,0%);stroke-opacity:1;stroke-miterlimit:10;" d="M 4.601016 0.216758 L 4.832656 0.725352 L 4.587344 0.591563 L 4.333047 0.707383 Z M 4.601016 0.216758 " transform="matrix(20,0,0,20,323.8,102.45)"/>
<path style="fill:none;stroke-width:0.1;stroke-linecap:butt;stroke-linejoin:miter;stroke:rgb(0%,0%,0%);stroke-opacity:1;stroke-dasharray:0.1,0.1;stroke-miterlimit:10;" d="M 1.655898 6.421055 L -3.531797 -0.0916406 " transform="matrix(20,0,0,20,323.8,102.45)"/>
<path style="fill-rule:evenodd;fill:rgb(0%,0%,0%);fill-opacity:1;stroke-width:0.1;stroke-linecap:butt;stroke-linejoin:miter;stroke:rgb(0%,0%,0%);stroke-opacity:1;stroke-miterlimit:10;" d="M 1.460391 6.576914 L 1.967422 6.812266 L 1.851406 6.265391 Z M 1.460391 6.576914 " transform="matrix(20,0,0,20,323.8,102.45)"/>
<path style="fill-rule:evenodd;fill:rgb(0%,0%,0%);fill-opacity:1;stroke-width:0.1;stroke-linecap:butt;stroke-linejoin:miter;stroke:rgb(0%,0%,0%);stroke-opacity:1;stroke-miterlimit:10;" d="M -3.765391 -0.385 L -3.258359 -0.149648 L -3.531797 -0.0916406 L -3.649375 0.161875 Z M -3.765391 -0.385 " transform="matrix(20,0,0,20,323.8,102.45)"/>
<path style="fill:none;stroke-width:0.1;stroke-linecap:butt;stroke-linejoin:miter;stroke:rgb(0%,0%,0%);stroke-opacity:1;stroke-dasharray:0.1,0.1;stroke-miterlimit:10;" d="M -8.793711 5.32125 L 8.086562 3.351328 " transform="matrix(20,0,0,20,323.8,102.45)"/>
<path style="fill-rule:evenodd;fill:rgb(0%,0%,0%);fill-opacity:1;stroke-width:0.1;stroke-linecap:butt;stroke-linejoin:miter;stroke:rgb(0%,0%,0%);stroke-opacity:1;stroke-miterlimit:10;" d="M -8.822617 5.073008 L -9.290391 5.379258 L -8.764805 5.569492 Z M -8.822617 5.073008 " transform="matrix(20,0,0,20,323.8,102.45)"/>
<path style="fill-rule:evenodd;fill:rgb(0%,0%,0%);fill-opacity:1;stroke-width:0.1;stroke-linecap:butt;stroke-linejoin:miter;stroke:rgb(0%,0%,0%);stroke-opacity:1;stroke-miterlimit:10;" d="M 8.459023 3.307969 L 7.99125 3.614219 L 8.086562 3.351328 L 7.933438 3.117539 Z M 8.459023 3.307969 " transform="matrix(20,0,0,20,323.8,102.45)"/>
<path style="fill:none;stroke-width:0.1;stroke-linecap:butt;stroke-linejoin:miter;stroke:rgb(0%,0%,0%);stroke-opacity:1;stroke-miterlimit:10;" d="M 0.537734 11.797422 L 1.684219 10.440586 " transform="matrix(20,0,0,20,323.8,102.45)"/>
<path style="fill-rule:evenodd;fill:rgb(0%,0%,0%);fill-opacity:1;stroke-width:0.1;stroke-linecap:butt;stroke-linejoin:miter;stroke:rgb(0%,0%,0%);stroke-opacity:1;stroke-miterlimit:10;" d="M 0.346719 11.635898 L 0.215078 12.179258 L 0.72875 11.95875 Z M 0.346719 11.635898 " transform="matrix(20,0,0,20,323.8,102.45)"/>
<path style="fill-rule:evenodd;fill:rgb(0%,0%,0%);fill-opacity:1;stroke-width:0.1;stroke-linecap:butt;stroke-linejoin:miter;stroke:rgb(0%,0%,0%);stroke-opacity:1;stroke-miterlimit:10;" d="M 1.926406 10.154063 L 1.79457 10.697422 L 1.684219 10.440586 L 1.412734 10.37457 Z M 1.926406 10.154063 " transform="matrix(20,0,0,20,323.8,102.45)"/>
<path style="fill:none;stroke-width:0.1;stroke-linecap:butt;stroke-linejoin:miter;stroke:rgb(0%,0%,0%);stroke-opacity:1;stroke-miterlimit:10;" d="M 17.555508 20.856016 L 14.326406 20.994102 " transform="matrix(20,0,0,20,323.8,102.45)"/>
<path style="fill-rule:evenodd;fill:rgb(0%,0%,0%);fill-opacity:1;stroke-width:0.1;stroke-linecap:butt;stroke-linejoin:miter;stroke:rgb(0%,0%,0%);stroke-opacity:1;stroke-miterlimit:10;" d="M 17.56625 21.10582 L 18.055117 20.834727 L 17.544766 20.606211 Z M 17.56625 21.10582 " transform="matrix(20,0,0,20,323.8,102.45)"/>
<path style="fill-rule:evenodd;fill:rgb(0%,0%,0%);fill-opacity:1;stroke-width:0.1;stroke-linecap:butt;stroke-linejoin:miter;stroke:rgb(0%,0%,0%);stroke-opacity:1;stroke-miterlimit:10;" d="M 13.951797 21.010313 L 14.440469 20.739023 L 14.326406 20.994102 L 14.461953 21.238633 Z M 13.951797 21.010313 " transform="matrix(20,0,0,20,323.8,102.45)"/>
<path style="fill:none;stroke-width:0.1;stroke-linecap:butt;stroke-linejoin:miter;stroke:rgb(0%,0%,0%);stroke-opacity:1;stroke-miterlimit:10;" d="M -10.432188 18.954258 L -6.32125 -0.662344 " transform="matrix(20,0,0,20,323.8,102.45)"/>
<path style="fill-rule:evenodd;fill:rgb(0%,0%,0%);fill-opacity:1;stroke-width:0.1;stroke-linecap:butt;stroke-linejoin:miter;stroke:rgb(0%,0%,0%);stroke-opacity:1;stroke-miterlimit:10;" d="M -10.676914 18.902891 L -10.534727 19.443516 L -10.187461 19.00543 Z M -10.676914 18.902891 " transform="matrix(20,0,0,20,323.8,102.45)"/>
<path style="fill-rule:evenodd;fill:rgb(0%,0%,0%);fill-opacity:1;stroke-width:0.1;stroke-linecap:butt;stroke-linejoin:miter;stroke:rgb(0%,0%,0%);stroke-opacity:1;stroke-miterlimit:10;" d="M -6.244492 -1.029336 L -6.102305 -0.488711 L -6.32125 -0.662344 L -6.591563 -0.59125 Z M -6.244492 -1.029336 " transform="matrix(20,0,0,20,323.8,102.45)"/>
<path style="fill:none;stroke-width:0.1;stroke-linecap:butt;stroke-linejoin:miter;stroke:rgb(0%,0%,0%);stroke-opacity:1;stroke-miterlimit:10;" d="M 14.490078 9.656016 L -6.745078 21.529844 " transform="matrix(20,0,0,20,323.8,102.45)"/>
<path style="fill-rule:evenodd;fill:rgb(0%,0%,0%);fill-opacity:1;stroke-width:0.1;stroke-linecap:butt;stroke-linejoin:miter;stroke:rgb(0%,0%,0%);stroke-opacity:1;stroke-miterlimit:10;" d="M 14.612148 9.87418 L 14.926406 9.411875 L 14.368008 9.437656 Z M 14.612148 9.87418 " transform="matrix(20,0,0,20,323.8,102.45)"/>
<path style="fill-rule:evenodd;fill:rgb(0%,0%,0%);fill-opacity:1;stroke-width:0.1;stroke-linecap:butt;stroke-linejoin:miter;stroke:rgb(0%,0%,0%);stroke-opacity:1;stroke-miterlimit:10;" d="M -7.072422 21.712852 L -6.757969 21.250742 L -6.745078 21.529844 L -6.514023 21.68707 Z M -7.072422 21.712852 " transform="matrix(20,0,0,20,323.8,102.45)"/>
<path style="fill:none;stroke-width:0.1;stroke-linecap:butt;stroke-linejoin:miter;stroke:rgb(0%,0%,0%);stroke-opacity:1;stroke-miterlimit:10;" d="M -9.034141 19.124375 L 1.976992 -0.138711 " transform="matrix(20,0,0,20,323.8,102.45)"/>
<path style="fill-rule:evenodd;fill:rgb(0%,0%,0%);fill-opacity:1;stroke-width:0.1;stroke-linecap:butt;stroke-linejoin:miter;stroke:rgb(0%,0%,0%);stroke-opacity:1;stroke-miterlimit:10;" d="M -9.251328 19.000352 L -9.282383 19.558555 L -8.817148 19.248594 Z M -9.251328 19.000352 " transform="matrix(20,0,0,20,323.8,102.45)"/>
<path style="fill-rule:evenodd;fill:rgb(0%,0%,0%);fill-opacity:1;stroke-width:0.1;stroke-linecap:butt;stroke-linejoin:miter;stroke:rgb(0%,0%,0%);stroke-opacity:1;stroke-miterlimit:10;" d="M 2.16293 -0.464297 L 2.131875 0.0939063 L 1.976992 -0.138711 L 1.697891 -0.154336 Z M 2.16293 -0.464297 " transform="matrix(20,0,0,20,323.8,102.45)"/>
<path style="fill:none;stroke-width:0.1;stroke-linecap:butt;stroke-linejoin:miter;stroke:rgb(0%,0%,0%);stroke-opacity:1;stroke-miterlimit:10;" d="M -12.922031 19.608945 L -12.723398 8.146641 " transform="matrix(20,0,0,20,323.8,102.45)"/>
<path style="fill-rule:evenodd;fill:rgb(0%,0%,0%);fill-opacity:1;stroke-width:0.1;stroke-linecap:butt;stroke-linejoin:miter;stroke:rgb(0%,0%,0%);stroke-opacity:1;stroke-miterlimit:10;" d="M -13.171836 19.604648 L -12.930625 20.10875 L -12.672031 19.613242 Z M -13.171836 19.604648 " transform="matrix(20,0,0,20,323.8,102.45)"/>
<path style="fill-rule:evenodd;fill:rgb(0%,0%,0%);fill-opacity:1;stroke-width:0.1;stroke-linecap:butt;stroke-linejoin:miter;stroke:rgb(0%,0%,0%);stroke-opacity:1;stroke-miterlimit:10;" d="M -12.716953 7.771836 L -12.475547 8.276133 L -12.723398 8.146641 L -12.975547 8.267344 Z M -12.716953 7.771836 " transform="matrix(20,0,0,20,323.8,102.45)"/>
<path style="fill:none;stroke-width:0.1;stroke-linecap:butt;stroke-linejoin:miter;stroke:rgb(0%,0%,0%);stroke-opacity:1;stroke-miterlimit:10;" d="M 24.950039 10.592344 L 21.198281 10.540391 " transform="matrix(20,0,0,20,323.8,102.45)"/>
<path style="fill-rule:evenodd;fill:rgb(0%,0%,0%);fill-opacity:1;stroke-width:0.1;stroke-linecap:butt;stroke-linejoin:miter;stroke:rgb(0%,0%,0%);stroke-opacity:1;stroke-miterlimit:10;" d="M 24.946523 10.842344 L 25.450039 10.599375 L 24.953555 10.342344 Z M 24.946523 10.842344 " transform="matrix(20,0,0,20,323.8,102.45)"/>
<path style="fill-rule:evenodd;fill:rgb(0%,0%,0%);fill-opacity:1;stroke-width:0.1;stroke-linecap:butt;stroke-linejoin:miter;stroke:rgb(0%,0%,0%);stroke-opacity:1;stroke-miterlimit:10;" d="M 20.823281 10.535312 L 21.326797 10.292148 L 21.198281 10.540391 L 21.319766 10.792148 Z M 20.823281 10.535312 " transform="matrix(20,0,0,20,323.8,102.45)"/>
<path style="fill:none;stroke-width:0.1;stroke-linecap:butt;stroke-linejoin:miter;stroke:rgb(0%,0%,0%);stroke-opacity:1;stroke-miterlimit:10;" d="M 28.744961 7.790586 L 28.136563 5.291758 " transform="matrix(20,0,0,20,323.8,102.45)"/>
<path style="fill-rule:evenodd;fill:rgb(0%,0%,0%);fill-opacity:1;stroke-width:0.1;stroke-linecap:butt;stroke-linejoin:miter;stroke:rgb(0%,0%,0%);stroke-opacity:1;stroke-miterlimit:10;" d="M 28.501992 7.849766 L 28.863125 8.276328 L 28.987734 7.731406 Z M 28.501992 7.849766 " transform="matrix(20,0,0,20,323.8,102.45)"/>
<path style="fill-rule:evenodd;fill:rgb(0%,0%,0%);fill-opacity:1;stroke-width:0.1;stroke-linecap:butt;stroke-linejoin:miter;stroke:rgb(0%,0%,0%);stroke-opacity:1;stroke-miterlimit:10;" d="M 28.047891 4.927305 L 28.409023 5.354063 L 28.136563 5.291758 L 27.923281 5.472227 Z M 28.047891 4.927305 " transform="matrix(20,0,0,20,323.8,102.45)"/>
<path style="fill-rule:evenodd;fill:rgb(100%,100%,100%);fill-opacity:1;stroke-width:0.1;stroke-linecap:butt;stroke-linejoin:miter;stroke:rgb(0%,0%,0%);stroke-opacity:1;stroke-miterlimit:10;" d="M 1.854922 14.232578 C 1.854922 15.489023 0.343984 16.507578 -1.520078 16.507578 C -3.383945 16.507578 -4.895078 15.489023 -4.895078 14.232578 C -4.895078 12.976133 -3.383945 11.957578 -1.520078 11.957578 C 0.343984 11.957578 1.854922 12.976133 1.854922 14.232578 " transform="matrix(20,0,0,20,323.8,102.45)"/>
<g style="fill:rgb(0%,0%,0%);fill-opacity:1;">
  <use xlink:href="#glyph0-13" x="274.398438" y="390.112684"/>
  <use xlink:href="#glyph0-13" x="282.176215" y="390.112684"/>
  <use xlink:href="#glyph0-43" x="290.231771" y="390.112684"/>
  <use xlink:href="#glyph0-9" x="299.676215" y="390.112684"/>
</g>
<path style="fill-rule:evenodd;fill:rgb(100%,100%,100%);fill-opacity:1;stroke-width:0.1;stroke-linecap:butt;stroke-linejoin:miter;stroke:rgb(0%,0%,0%);stroke-opacity:1;stroke-miterlimit:10;" d="M 24.854922 20.832578 C 24.854922 22.089023 23.343984 23.107578 21.479922 23.107578 C 19.616055 23.107578 18.104922 22.089023 18.104922 20.832578 C 18.104922 19.576133 19.616055 18.557578 21.479922 18.557578 C 23.343984 18.557578 24.854922 19.576133 24.854922 20.832578 " transform="matrix(20,0,0,20,323.8,102.45)"/>
<g style="fill:rgb(0%,0%,0%);fill-opacity:1;">
  <use xlink:href="#glyph0-1" x="692.398438" y="523.112684"/>
  <use xlink:href="#glyph0-7" x="702.12066" y="523.112684"/>
  <use xlink:href="#glyph0-44" x="709.065104" y="523.112684"/>
  <use xlink:href="#glyph0-27" x="715.731771" y="523.112684"/>
  <use xlink:href="#glyph0-5" x="720.453993" y="523.112684"/>
  <use xlink:href="#glyph0-11" x="723.787326" y="523.112684"/>
  <use xlink:href="#glyph0-40" x="730.731771" y="523.112684"/>
  <use xlink:href="#glyph0-19" x="737.398438" y="523.112684"/>
  <use xlink:href="#glyph0-27" x="743.509549" y="523.112684"/>
  <use xlink:href="#glyph0-7" x="748.231771" y="523.112684"/>
  <use xlink:href="#glyph0-28" x="755.453993" y="523.112684"/>
  <use xlink:href="#glyph0-5" x="767.398438" y="523.112684"/>
  <use xlink:href="#glyph0-11" x="770.731771" y="523.112684"/>
  <use xlink:href="#glyph0-27" x="777.676215" y="523.112684"/>
  <use xlink:href="#glyph0-16" x="782.398438" y="523.112684"/>
  <use xlink:href="#glyph0-32" x="790.176215" y="523.112684"/>
  <use xlink:href="#glyph0-25" x="797.953993" y="523.112684"/>
  <use xlink:href="#glyph0-7" x="801.287326" y="523.112684"/>
  <use xlink:href="#glyph0-19" x="808.509549" y="523.112684"/>
</g>
<path style="fill:none;stroke-width:0.1;stroke-linecap:butt;stroke-linejoin:miter;stroke:rgb(0%,0%,0%);stroke-opacity:1;stroke-miterlimit:10;" d="M -7.772617 19.766953 L -4.248008 16.188047 " transform="matrix(20,0,0,20,323.8,102.45)"/>
<path style="fill-rule:evenodd;fill:rgb(0%,0%,0%);fill-opacity:1;stroke-width:0.1;stroke-linecap:butt;stroke-linejoin:miter;stroke:rgb(0%,0%,0%);stroke-opacity:1;stroke-miterlimit:10;" d="M -7.950742 19.591563 L -8.123398 20.123203 L -7.594492 19.942344 Z M -7.950742 19.591563 " transform="matrix(20,0,0,20,323.8,102.45)"/>
<path style="fill-rule:evenodd;fill:rgb(0%,0%,0%);fill-opacity:1;stroke-width:0.1;stroke-linecap:butt;stroke-linejoin:miter;stroke:rgb(0%,0%,0%);stroke-opacity:1;stroke-miterlimit:10;" d="M -3.984922 15.920859 L -4.157578 16.4525 L -4.248008 16.188047 L -4.513828 16.101719 Z M -3.984922 15.920859 " transform="matrix(20,0,0,20,323.8,102.45)"/>
<path style="fill:none;stroke-width:0.1;stroke-linecap:butt;stroke-linejoin:miter;stroke:rgb(0%,0%,0%);stroke-opacity:1;stroke-miterlimit:10;" d="M 27.220156 20.791953 L 25.341641 20.82418 " transform="matrix(20,0,0,20,323.8,102.45)"/>
<path style="fill-rule:evenodd;fill:rgb(0%,0%,0%);fill-opacity:1;stroke-width:0.1;stroke-linecap:butt;stroke-linejoin:miter;stroke:rgb(0%,0%,0%);stroke-opacity:1;stroke-miterlimit:10;" d="M 27.224453 21.041953 L 27.719961 20.783359 L 27.215859 20.541953 Z M 27.224453 21.041953 " transform="matrix(20,0,0,20,323.8,102.45)"/>
<path style="fill-rule:evenodd;fill:rgb(0%,0%,0%);fill-opacity:1;stroke-width:0.1;stroke-linecap:butt;stroke-linejoin:miter;stroke:rgb(0%,0%,0%);stroke-opacity:1;stroke-miterlimit:10;" d="M 24.966836 20.830625 L 25.462344 20.572031 L 25.341641 20.82418 L 25.470938 21.072031 Z M 24.966836 20.830625 " transform="matrix(20,0,0,20,323.8,102.45)"/>
</g>
</svg>
