<?xml version="1.0" encoding="UTF-8"?>
<dia:diagram xmlns:dia="http://www.lysator.liu.se/~alla/dia/">
  <dia:diagramdata>
    <dia:attribute name="background">
      <dia:color val="#ffffffff"/>
    </dia:attribute>
    <dia:attribute name="pagebreak">
      <dia:color val="#000099ff"/>
    </dia:attribute>
    <dia:attribute name="paper">
      <dia:composite type="paper">
        <dia:attribute name="name">
          <dia:string>#Letter#</dia:string>
        </dia:attribute>
        <dia:attribute name="tmargin">
          <dia:real val="2.54"/>
        </dia:attribute>
        <dia:attribute name="bmargin">
          <dia:real val="2.54"/>
        </dia:attribute>
        <dia:attribute name="lmargin">
          <dia:real val="2.54"/>
        </dia:attribute>
        <dia:attribute name="rmargin">
          <dia:real val="2.54"/>
        </dia:attribute>
        <dia:attribute name="is_portrait">
          <dia:boolean val="true"/>
        </dia:attribute>
        <dia:attribute name="scaling">
          <dia:real val="1"/>
        </dia:attribute>
        <dia:attribute name="fitto">
          <dia:boolean val="false"/>
        </dia:attribute>
      </dia:composite>
    </dia:attribute>
    <dia:attribute name="grid">
      <dia:composite type="grid">
        <dia:attribute name="dynamic">
          <dia:boolean val="true"/>
        </dia:attribute>
        <dia:attribute name="width_x">
          <dia:real val="1"/>
        </dia:attribute>
        <dia:attribute name="width_y">
          <dia:real val="1"/>
        </dia:attribute>
        <dia:attribute name="visible_x">
          <dia:int val="1"/>
        </dia:attribute>
        <dia:attribute name="visible_y">
          <dia:int val="1"/>
        </dia:attribute>
        <dia:composite type="color"/>
      </dia:composite>
    </dia:attribute>
    <dia:attribute name="color">
      <dia:color val="#d8e5e5ff"/>
    </dia:attribute>
    <dia:attribute name="guides"/>
    <dia:attribute name="guide_color">
      <dia:color val="#00ff00ff"/>
    </dia:attribute>
    <dia:attribute name="display">
      <dia:composite type="display">
        <dia:attribute name="antialiased">
          <dia:boolean val="true"/>
        </dia:attribute>
        <dia:attribute name="snap-to-grid">
          <dia:boolean val="false"/>
        </dia:attribute>
        <dia:attribute name="snap-to-guides">
          <dia:boolean val="true"/>
        </dia:attribute>
        <dia:attribute name="snap-to-object">
          <dia:boolean val="true"/>
        </dia:attribute>
        <dia:attribute name="show-grid">
          <dia:boolean val="true"/>
        </dia:attribute>
        <dia:attribute name="show-guides">
          <dia:boolean val="true"/>
        </dia:attribute>
        <dia:attribute name="show-connection-points">
          <dia:boolean val="true"/>
        </dia:attribute>
      </dia:composite>
    </dia:attribute>
  </dia:diagramdata>
  <dia:layer name="Background" visible="true" connectable="false"/>
  <dia:layer name="Background" visible="true" connectable="true" active="true">
    <dia:object type="Standard - Text" version="1" id="O0">
      <dia:attribute name="obj_pos">
        <dia:point val="42.55,7.35"/>
      </dia:attribute>
      <dia:attribute name="obj_bb">
        <dia:rectangle val="42.55,6.665;42.55,7.54"/>
      </dia:attribute>
      <dia:attribute name="text">
        <dia:composite type="text">
          <dia:attribute name="string">
            <dia:string>##</dia:string>
          </dia:attribute>
          <dia:attribute name="font">
            <dia:font family="sans" style="0" name="Helvetica"/>
          </dia:attribute>
          <dia:attribute name="height">
            <dia:real val="0.80000000000000004"/>
          </dia:attribute>
          <dia:attribute name="pos">
            <dia:point val="42.55,7.35"/>
          </dia:attribute>
          <dia:attribute name="color">
            <dia:color val="#000000ff"/>
          </dia:attribute>
          <dia:attribute name="alignment">
            <dia:enum val="0"/>
          </dia:attribute>
        </dia:composite>
      </dia:attribute>
      <dia:attribute name="valign">
        <dia:enum val="3"/>
      </dia:attribute>
    </dia:object>
    <dia:group>
      <dia:attribute name="meta">
        <dia:composite type="dict"/>
      </dia:attribute>
      <dia:attribute name="matrix"/>
      <dia:object type="Standard - Ellipse" version="0" id="O1">
        <dia:attribute name="obj_pos">
          <dia:point val="14.95,6.65"/>
        </dia:attribute>
        <dia:attribute name="obj_bb">
          <dia:rectangle val="14.9,6.6;21.75,11.25"/>
        </dia:attribute>
        <dia:attribute name="elem_corner">
          <dia:point val="14.95,6.65"/>
        </dia:attribute>
        <dia:attribute name="elem_width">
          <dia:real val="6.75"/>
        </dia:attribute>
        <dia:attribute name="elem_height">
          <dia:real val="4.5500000000000043"/>
        </dia:attribute>
      </dia:object>
      <dia:object type="Standard - Text" version="1" id="O2">
        <dia:attribute name="obj_pos">
          <dia:point val="15.9,9.2"/>
        </dia:attribute>
        <dia:attribute name="obj_bb">
          <dia:rectangle val="15.9,8.515;20.46,9.39"/>
        </dia:attribute>
        <dia:attribute name="text">
          <dia:composite type="text">
            <dia:attribute name="string">
              <dia:string>#NOVA Web Dev#</dia:string>
            </dia:attribute>
            <dia:attribute name="font">
              <dia:font family="sans" style="0" name="Helvetica"/>
            </dia:attribute>
            <dia:attribute name="height">
              <dia:real val="0.80000000000000004"/>
            </dia:attribute>
            <dia:attribute name="pos">
              <dia:point val="15.9,9.2"/>
            </dia:attribute>
            <dia:attribute name="color">
              <dia:color val="#000000ff"/>
            </dia:attribute>
            <dia:attribute name="alignment">
              <dia:enum val="0"/>
            </dia:attribute>
          </dia:composite>
        </dia:attribute>
        <dia:attribute name="valign">
          <dia:enum val="3"/>
        </dia:attribute>
      </dia:object>
    </dia:group>
    <dia:group>
      <dia:attribute name="meta">
        <dia:composite type="dict"/>
      </dia:attribute>
      <dia:attribute name="matrix"/>
      <dia:object type="Standard - Ellipse" version="0" id="O3">
        <dia:attribute name="obj_pos">
          <dia:point val="1.01,6.185"/>
        </dia:attribute>
        <dia:attribute name="obj_bb">
          <dia:rectangle val="0.96,6.135;7.81,10.785"/>
        </dia:attribute>
        <dia:attribute name="elem_corner">
          <dia:point val="1.01,6.185"/>
        </dia:attribute>
        <dia:attribute name="elem_width">
          <dia:real val="6.75"/>
        </dia:attribute>
        <dia:attribute name="elem_height">
          <dia:real val="4.5500000000000043"/>
        </dia:attribute>
      </dia:object>
      <dia:object type="Standard - Text" version="1" id="O4">
        <dia:attribute name="obj_pos">
          <dia:point val="2.95,8.6"/>
        </dia:attribute>
        <dia:attribute name="obj_bb">
          <dia:rectangle val="2.95,7.915;5.7375,9.59"/>
        </dia:attribute>
        <dia:attribute name="text">
          <dia:composite type="text">
            <dia:attribute name="string">
              <dia:string>#SECOSOL
#</dia:string>
            </dia:attribute>
            <dia:attribute name="font">
              <dia:font family="sans" style="0" name="Helvetica"/>
            </dia:attribute>
            <dia:attribute name="height">
              <dia:real val="0.80000000000000004"/>
            </dia:attribute>
            <dia:attribute name="pos">
              <dia:point val="2.95,8.6"/>
            </dia:attribute>
            <dia:attribute name="color">
              <dia:color val="#000000ff"/>
            </dia:attribute>
            <dia:attribute name="alignment">
              <dia:enum val="0"/>
            </dia:attribute>
          </dia:composite>
        </dia:attribute>
        <dia:attribute name="valign">
          <dia:enum val="3"/>
        </dia:attribute>
      </dia:object>
    </dia:group>
    <dia:group>
      <dia:attribute name="meta">
        <dia:composite type="dict"/>
      </dia:attribute>
      <dia:attribute name="matrix"/>
      <dia:object type="Standard - Ellipse" version="0" id="O5">
        <dia:attribute name="obj_pos">
          <dia:point val="1.23,-4.445"/>
        </dia:attribute>
        <dia:attribute name="obj_bb">
          <dia:rectangle val="1.18,-4.495;8.03,0.155"/>
        </dia:attribute>
        <dia:attribute name="elem_corner">
          <dia:point val="1.23,-4.445"/>
        </dia:attribute>
        <dia:attribute name="elem_width">
          <dia:real val="6.75"/>
        </dia:attribute>
        <dia:attribute name="elem_height">
          <dia:real val="4.5500000000000043"/>
        </dia:attribute>
      </dia:object>
      <dia:object type="Standard - Text" version="1" id="O6">
        <dia:attribute name="obj_pos">
          <dia:point val="2.62,-2.28"/>
        </dia:attribute>
        <dia:attribute name="obj_bb">
          <dia:rectangle val="2.62,-2.965;7.2375,-0.49"/>
        </dia:attribute>
        <dia:attribute name="text">
          <dia:composite type="text">
            <dia:attribute name="string">
              <dia:string>#Mujeres Manos
a la Obra
#</dia:string>
            </dia:attribute>
            <dia:attribute name="font">
              <dia:font family="sans" style="0" name="Helvetica"/>
            </dia:attribute>
            <dia:attribute name="height">
              <dia:real val="0.80000000000000004"/>
            </dia:attribute>
            <dia:attribute name="pos">
              <dia:point val="2.62,-2.28"/>
            </dia:attribute>
            <dia:attribute name="color">
              <dia:color val="#000000ff"/>
            </dia:attribute>
            <dia:attribute name="alignment">
              <dia:enum val="0"/>
            </dia:attribute>
          </dia:composite>
        </dia:attribute>
        <dia:attribute name="valign">
          <dia:enum val="3"/>
        </dia:attribute>
      </dia:object>
    </dia:group>
    <dia:group>
      <dia:attribute name="meta">
        <dia:composite type="dict"/>
      </dia:attribute>
      <dia:attribute name="matrix"/>
      <dia:object type="Standard - Ellipse" version="0" id="O7">
        <dia:attribute name="obj_pos">
          <dia:point val="22.26,0.935"/>
        </dia:attribute>
        <dia:attribute name="obj_bb">
          <dia:rectangle val="22.21,0.885;29.06,5.535"/>
        </dia:attribute>
        <dia:attribute name="elem_corner">
          <dia:point val="22.26,0.935"/>
        </dia:attribute>
        <dia:attribute name="elem_width">
          <dia:real val="6.75"/>
        </dia:attribute>
        <dia:attribute name="elem_height">
          <dia:real val="4.5500000000000043"/>
        </dia:attribute>
      </dia:object>
      <dia:object type="Standard - Text" version="1" id="O8">
        <dia:attribute name="obj_pos">
          <dia:point val="23.65,3.1"/>
        </dia:attribute>
        <dia:attribute name="obj_bb">
          <dia:rectangle val="23.65,2.415;27.495,4.89"/>
        </dia:attribute>
        <dia:attribute name="text">
          <dia:composite type="text">
            <dia:attribute name="string">
              <dia:string>#Social Justice
Computing
#</dia:string>
            </dia:attribute>
            <dia:attribute name="font">
              <dia:font family="sans" style="0" name="Helvetica"/>
            </dia:attribute>
            <dia:attribute name="height">
              <dia:real val="0.80000000000000004"/>
            </dia:attribute>
            <dia:attribute name="pos">
              <dia:point val="23.65,3.1"/>
            </dia:attribute>
            <dia:attribute name="color">
              <dia:color val="#000000ff"/>
            </dia:attribute>
            <dia:attribute name="alignment">
              <dia:enum val="0"/>
            </dia:attribute>
          </dia:composite>
        </dia:attribute>
        <dia:attribute name="valign">
          <dia:enum val="3"/>
        </dia:attribute>
      </dia:object>
    </dia:group>
    <dia:group>
      <dia:attribute name="meta">
        <dia:composite type="dict"/>
      </dia:attribute>
      <dia:attribute name="matrix"/>
      <dia:object type="Standard - Ellipse" version="0" id="O9">
        <dia:attribute name="obj_pos">
          <dia:point val="8.57,1.02"/>
        </dia:attribute>
        <dia:attribute name="obj_bb">
          <dia:rectangle val="8.52,0.97;15.37,5.62"/>
        </dia:attribute>
        <dia:attribute name="elem_corner">
          <dia:point val="8.57,1.02"/>
        </dia:attribute>
        <dia:attribute name="elem_width">
          <dia:real val="6.75"/>
        </dia:attribute>
        <dia:attribute name="elem_height">
          <dia:real val="4.5500000000000043"/>
        </dia:attribute>
      </dia:object>
      <dia:object type="Standard - Text" version="1" id="O10">
        <dia:attribute name="obj_pos">
          <dia:point val="9.81,3.435"/>
        </dia:attribute>
        <dia:attribute name="obj_bb">
          <dia:rectangle val="9.81,2.75;14.0275,4.425"/>
        </dia:attribute>
        <dia:attribute name="text">
          <dia:composite type="text">
            <dia:attribute name="string">
              <dia:string>#Jetro Web Dev
#</dia:string>
            </dia:attribute>
            <dia:attribute name="font">
              <dia:font family="sans" style="0" name="Helvetica"/>
            </dia:attribute>
            <dia:attribute name="height">
              <dia:real val="0.80000000000000004"/>
            </dia:attribute>
            <dia:attribute name="pos">
              <dia:point val="9.81,3.435"/>
            </dia:attribute>
            <dia:attribute name="color">
              <dia:color val="#000000ff"/>
            </dia:attribute>
            <dia:attribute name="alignment">
              <dia:enum val="0"/>
            </dia:attribute>
          </dia:composite>
        </dia:attribute>
        <dia:attribute name="valign">
          <dia:enum val="3"/>
        </dia:attribute>
      </dia:object>
    </dia:group>
    <dia:group>
      <dia:attribute name="meta">
        <dia:composite type="dict"/>
      </dia:attribute>
      <dia:attribute name="matrix"/>
      <dia:object type="Standard - Ellipse" version="0" id="O11">
        <dia:attribute name="obj_pos">
          <dia:point val="8.06,12.635"/>
        </dia:attribute>
        <dia:attribute name="obj_bb">
          <dia:rectangle val="8.01,12.585;14.86,17.235"/>
        </dia:attribute>
        <dia:attribute name="elem_corner">
          <dia:point val="8.06,12.635"/>
        </dia:attribute>
        <dia:attribute name="elem_width">
          <dia:real val="6.75"/>
        </dia:attribute>
        <dia:attribute name="elem_height">
          <dia:real val="4.5500000000000043"/>
        </dia:attribute>
      </dia:object>
      <dia:object type="Standard - Text" version="1" id="O12">
        <dia:attribute name="obj_pos">
          <dia:point val="8.85,14.8"/>
        </dia:attribute>
        <dia:attribute name="obj_bb">
          <dia:rectangle val="8.85,14.115;13.8325,16.59"/>
        </dia:attribute>
        <dia:attribute name="text">
          <dia:composite type="text">
            <dia:attribute name="string">
              <dia:string>#Santein
Freelance Studio
#</dia:string>
            </dia:attribute>
            <dia:attribute name="font">
              <dia:font family="sans" style="0" name="Helvetica"/>
            </dia:attribute>
            <dia:attribute name="height">
              <dia:real val="0.80000000000000004"/>
            </dia:attribute>
            <dia:attribute name="pos">
              <dia:point val="8.85,14.8"/>
            </dia:attribute>
            <dia:attribute name="color">
              <dia:color val="#000000ff"/>
            </dia:attribute>
            <dia:attribute name="alignment">
              <dia:enum val="0"/>
            </dia:attribute>
          </dia:composite>
        </dia:attribute>
        <dia:attribute name="valign">
          <dia:enum val="3"/>
        </dia:attribute>
      </dia:object>
    </dia:group>
    <dia:group>
      <dia:attribute name="meta">
        <dia:composite type="dict"/>
      </dia:attribute>
      <dia:attribute name="matrix"/>
      <dia:object type="Standard - Ellipse" version="0" id="O13">
        <dia:attribute name="obj_pos">
          <dia:point val="7.09,18.74"/>
        </dia:attribute>
        <dia:attribute name="obj_bb">
          <dia:rectangle val="7.04,18.69;13.89,23.34"/>
        </dia:attribute>
        <dia:attribute name="elem_corner">
          <dia:point val="7.09,18.74"/>
        </dia:attribute>
        <dia:attribute name="elem_width">
          <dia:real val="6.75"/>
        </dia:attribute>
        <dia:attribute name="elem_height">
          <dia:real val="4.5500000000000043"/>
        </dia:attribute>
      </dia:object>
      <dia:object type="Standard - Text" version="1" id="O14">
        <dia:attribute name="obj_pos">
          <dia:point val="8.08,21.305"/>
        </dia:attribute>
        <dia:attribute name="obj_bb">
          <dia:rectangle val="8.08,20.62;12.6825,22.295"/>
        </dia:attribute>
        <dia:attribute name="text">
          <dia:composite type="text">
            <dia:attribute name="string">
              <dia:string>#DNOVA Council
#</dia:string>
            </dia:attribute>
            <dia:attribute name="font">
              <dia:font family="sans" style="0" name="Helvetica"/>
            </dia:attribute>
            <dia:attribute name="height">
              <dia:real val="0.80000000000000004"/>
            </dia:attribute>
            <dia:attribute name="pos">
              <dia:point val="8.08,21.305"/>
            </dia:attribute>
            <dia:attribute name="color">
              <dia:color val="#000000ff"/>
            </dia:attribute>
            <dia:attribute name="alignment">
              <dia:enum val="0"/>
            </dia:attribute>
          </dia:composite>
        </dia:attribute>
        <dia:attribute name="valign">
          <dia:enum val="3"/>
        </dia:attribute>
      </dia:object>
    </dia:group>
    <dia:group>
      <dia:attribute name="meta">
        <dia:composite type="dict"/>
      </dia:attribute>
      <dia:attribute name="matrix"/>
      <dia:object type="Standard - Ellipse" version="0" id="O15">
        <dia:attribute name="obj_pos">
          <dia:point val="25.5,8.325"/>
        </dia:attribute>
        <dia:attribute name="obj_bb">
          <dia:rectangle val="25.45,8.275;32.3,12.925"/>
        </dia:attribute>
        <dia:attribute name="elem_corner">
          <dia:point val="25.5,8.325"/>
        </dia:attribute>
        <dia:attribute name="elem_width">
          <dia:real val="6.75"/>
        </dia:attribute>
        <dia:attribute name="elem_height">
          <dia:real val="4.5500000000000043"/>
        </dia:attribute>
      </dia:object>
      <dia:object type="Standard - Text" version="1" id="O16">
        <dia:attribute name="obj_pos">
          <dia:point val="26.74,10.49"/>
        </dia:attribute>
        <dia:attribute name="obj_bb">
          <dia:rectangle val="26.74,9.805;31.0225,12.28"/>
        </dia:attribute>
        <dia:attribute name="text">
          <dia:composite type="text">
            <dia:attribute name="string">
              <dia:string>#Arlington
Public Schools
#</dia:string>
            </dia:attribute>
            <dia:attribute name="font">
              <dia:font family="sans" style="0" name="Helvetica"/>
            </dia:attribute>
            <dia:attribute name="height">
              <dia:real val="0.80000000000000004"/>
            </dia:attribute>
            <dia:attribute name="pos">
              <dia:point val="26.74,10.49"/>
            </dia:attribute>
            <dia:attribute name="color">
              <dia:color val="#000000ff"/>
            </dia:attribute>
            <dia:attribute name="alignment">
              <dia:enum val="0"/>
            </dia:attribute>
          </dia:composite>
        </dia:attribute>
        <dia:attribute name="valign">
          <dia:enum val="3"/>
        </dia:attribute>
      </dia:object>
    </dia:group>
    <dia:group>
      <dia:attribute name="meta">
        <dia:composite type="dict"/>
      </dia:attribute>
      <dia:attribute name="matrix"/>
      <dia:object type="Standard - Ellipse" version="0" id="O17">
        <dia:attribute name="obj_pos">
          <dia:point val="-13.92,19.4925"/>
        </dia:attribute>
        <dia:attribute name="obj_bb">
          <dia:rectangle val="-13.97,19.4425;-7.12,24.0925"/>
        </dia:attribute>
        <dia:attribute name="elem_corner">
          <dia:point val="-13.92,19.4925"/>
        </dia:attribute>
        <dia:attribute name="elem_width">
          <dia:real val="6.75"/>
        </dia:attribute>
        <dia:attribute name="elem_height">
          <dia:real val="4.5500000000000043"/>
        </dia:attribute>
      </dia:object>
      <dia:object type="Standard - Text" version="1" id="O18">
        <dia:attribute name="obj_pos">
          <dia:point val="-13.03,21.6075"/>
        </dia:attribute>
        <dia:attribute name="obj_bb">
          <dia:rectangle val="-13.03,20.9225;-8.005,23.3975"/>
        </dia:attribute>
        <dia:attribute name="text">
          <dia:composite type="text">
            <dia:attribute name="string">
              <dia:string>#U.S. Federation
of Worker Coops
#</dia:string>
            </dia:attribute>
            <dia:attribute name="font">
              <dia:font family="sans" style="0" name="Helvetica"/>
            </dia:attribute>
            <dia:attribute name="height">
              <dia:real val="0.80000000000000004"/>
            </dia:attribute>
            <dia:attribute name="pos">
              <dia:point val="-13.03,21.6075"/>
            </dia:attribute>
            <dia:attribute name="color">
              <dia:color val="#000000ff"/>
            </dia:attribute>
            <dia:attribute name="alignment">
              <dia:enum val="0"/>
            </dia:attribute>
          </dia:composite>
        </dia:attribute>
        <dia:attribute name="valign">
          <dia:enum val="3"/>
        </dia:attribute>
      </dia:object>
    </dia:group>
    <dia:group>
      <dia:attribute name="meta">
        <dia:composite type="dict"/>
      </dia:attribute>
      <dia:attribute name="matrix"/>
      <dia:object type="Standard - Ellipse" version="0" id="O19">
        <dia:attribute name="obj_pos">
          <dia:point val="27.77,18.5075"/>
        </dia:attribute>
        <dia:attribute name="obj_bb">
          <dia:rectangle val="27.72,18.4575;34.57,23.1075"/>
        </dia:attribute>
        <dia:attribute name="elem_corner">
          <dia:point val="27.77,18.5075"/>
        </dia:attribute>
        <dia:attribute name="elem_width">
          <dia:real val="6.75"/>
        </dia:attribute>
        <dia:attribute name="elem_height">
          <dia:real val="4.5500000000000043"/>
        </dia:attribute>
      </dia:object>
      <dia:object type="Standard - Text" version="1" id="O20">
        <dia:attribute name="obj_pos">
          <dia:point val="29.16,20.6725"/>
        </dia:attribute>
        <dia:attribute name="obj_bb">
          <dia:rectangle val="29.16,19.9875;33.58,22.4625"/>
        </dia:attribute>
        <dia:attribute name="text">
          <dia:composite type="text">
            <dia:attribute name="string">
              <dia:string>#George Mason
University
#</dia:string>
            </dia:attribute>
            <dia:attribute name="font">
              <dia:font family="sans" style="0" name="Helvetica"/>
            </dia:attribute>
            <dia:attribute name="height">
              <dia:real val="0.80000000000000004"/>
            </dia:attribute>
            <dia:attribute name="pos">
              <dia:point val="29.16,20.6725"/>
            </dia:attribute>
            <dia:attribute name="color">
              <dia:color val="#000000ff"/>
            </dia:attribute>
            <dia:attribute name="alignment">
              <dia:enum val="0"/>
            </dia:attribute>
          </dia:composite>
        </dia:attribute>
        <dia:attribute name="valign">
          <dia:enum val="3"/>
        </dia:attribute>
      </dia:object>
    </dia:group>
    <dia:group>
      <dia:attribute name="meta">
        <dia:composite type="dict"/>
      </dia:attribute>
      <dia:attribute name="matrix"/>
      <dia:object type="Standard - Ellipse" version="0" id="O21">
        <dia:attribute name="obj_pos">
          <dia:point val="-7.21,-5.0225"/>
        </dia:attribute>
        <dia:attribute name="obj_bb">
          <dia:rectangle val="-7.26,-5.0725;-0.41,-0.4225"/>
        </dia:attribute>
        <dia:attribute name="elem_corner">
          <dia:point val="-7.21,-5.0225"/>
        </dia:attribute>
        <dia:attribute name="elem_width">
          <dia:real val="6.75"/>
        </dia:attribute>
        <dia:attribute name="elem_height">
          <dia:real val="4.5500000000000043"/>
        </dia:attribute>
      </dia:object>
      <dia:object type="Standard - Text" version="1" id="O22">
        <dia:attribute name="obj_pos">
          <dia:point val="-5.87,-2.6075"/>
        </dia:attribute>
        <dia:attribute name="obj_bb">
          <dia:rectangle val="-5.87,-3.2925;-1.8575,-1.6175"/>
        </dia:attribute>
        <dia:attribute name="text">
          <dia:composite type="text">
            <dia:attribute name="string">
              <dia:string>#Magic Broom
#</dia:string>
            </dia:attribute>
            <dia:attribute name="font">
              <dia:font family="sans" style="0" name="Helvetica"/>
            </dia:attribute>
            <dia:attribute name="height">
              <dia:real val="0.80000000000000004"/>
            </dia:attribute>
            <dia:attribute name="pos">
              <dia:point val="-5.87,-2.6075"/>
            </dia:attribute>
            <dia:attribute name="color">
              <dia:color val="#000000ff"/>
            </dia:attribute>
            <dia:attribute name="alignment">
              <dia:enum val="0"/>
            </dia:attribute>
          </dia:composite>
        </dia:attribute>
        <dia:attribute name="valign">
          <dia:enum val="3"/>
        </dia:attribute>
      </dia:object>
    </dia:group>
    <dia:group>
      <dia:attribute name="meta">
        <dia:composite type="dict"/>
      </dia:attribute>
      <dia:attribute name="matrix"/>
      <dia:object type="Standard - Ellipse" version="0" id="O23">
        <dia:attribute name="obj_pos">
          <dia:point val="-16.09,3.11"/>
        </dia:attribute>
        <dia:attribute name="obj_bb">
          <dia:rectangle val="-16.14,3.06;-9.29,7.71"/>
        </dia:attribute>
        <dia:attribute name="elem_corner">
          <dia:point val="-16.09,3.11"/>
        </dia:attribute>
        <dia:attribute name="elem_width">
          <dia:real val="6.75"/>
        </dia:attribute>
        <dia:attribute name="elem_height">
          <dia:real val="4.5500000000000043"/>
        </dia:attribute>
      </dia:object>
      <dia:object type="Standard - Text" version="1" id="O24">
        <dia:attribute name="obj_pos">
          <dia:point val="-14.7,4.925"/>
        </dia:attribute>
        <dia:attribute name="obj_bb">
          <dia:rectangle val="-14.7,4.24;-10.775,7.515"/>
        </dia:attribute>
        <dia:attribute name="text">
          <dia:composite type="text">
            <dia:attribute name="string">
              <dia:string>#International
Cooperative
Alliance
#</dia:string>
            </dia:attribute>
            <dia:attribute name="font">
              <dia:font family="sans" style="0" name="Helvetica"/>
            </dia:attribute>
            <dia:attribute name="height">
              <dia:real val="0.80000000000000004"/>
            </dia:attribute>
            <dia:attribute name="pos">
              <dia:point val="-14.7,4.925"/>
            </dia:attribute>
            <dia:attribute name="color">
              <dia:color val="#000000ff"/>
            </dia:attribute>
            <dia:attribute name="alignment">
              <dia:enum val="0"/>
            </dia:attribute>
          </dia:composite>
        </dia:attribute>
        <dia:attribute name="valign">
          <dia:enum val="3"/>
        </dia:attribute>
      </dia:object>
    </dia:group>
    <dia:object type="Standard - Line" version="0" id="O25">
      <dia:attribute name="obj_pos">
        <dia:point val="14.3315,4.90367"/>
      </dia:attribute>
      <dia:attribute name="obj_bb">
        <dia:rectangle val="14.2622,4.83434;16.0078,7.38566"/>
      </dia:attribute>
      <dia:attribute name="conn_endpoints">
        <dia:point val="14.3315,4.90367"/>
        <dia:point val="15.9385,7.31633"/>
      </dia:attribute>
      <dia:attribute name="numcp">
        <dia:int val="1"/>
      </dia:attribute>
      <dia:attribute name="start_arrow">
        <dia:enum val="3"/>
      </dia:attribute>
      <dia:attribute name="start_arrow_length">
        <dia:real val="0.5"/>
      </dia:attribute>
      <dia:attribute name="start_arrow_width">
        <dia:real val="0.5"/>
      </dia:attribute>
      <dia:attribute name="end_arrow">
        <dia:enum val="22"/>
      </dia:attribute>
      <dia:attribute name="end_arrow_length">
        <dia:real val="0.5"/>
      </dia:attribute>
      <dia:attribute name="end_arrow_width">
        <dia:real val="0.5"/>
      </dia:attribute>
      <dia:connections>
        <dia:connection handle="0" to="O9" connection="7"/>
        <dia:connection handle="1" to="O1" connection="0"/>
      </dia:connections>
    </dia:object>
    <dia:object type="Standard - Line" version="0" id="O26">
      <dia:attribute name="obj_pos">
        <dia:point val="13.8215,13.3013"/>
      </dia:attribute>
      <dia:attribute name="obj_bb">
        <dia:rectangle val="13.7511,10.6671;16.0204,13.3717"/>
      </dia:attribute>
      <dia:attribute name="conn_endpoints">
        <dia:point val="13.8215,13.3013"/>
        <dia:point val="15.95,10.7375"/>
      </dia:attribute>
      <dia:attribute name="numcp">
        <dia:int val="1"/>
      </dia:attribute>
      <dia:attribute name="start_arrow">
        <dia:enum val="3"/>
      </dia:attribute>
      <dia:attribute name="start_arrow_length">
        <dia:real val="0.5"/>
      </dia:attribute>
      <dia:attribute name="start_arrow_width">
        <dia:real val="0.5"/>
      </dia:attribute>
      <dia:attribute name="end_arrow">
        <dia:enum val="22"/>
      </dia:attribute>
      <dia:attribute name="end_arrow_length">
        <dia:real val="0.5"/>
      </dia:attribute>
      <dia:attribute name="end_arrow_width">
        <dia:real val="0.5"/>
      </dia:attribute>
      <dia:connections>
        <dia:connection handle="0" to="O11" connection="2"/>
      </dia:connections>
    </dia:object>
    <dia:object type="Standard - Line" version="0" id="O27">
      <dia:attribute name="obj_pos">
        <dia:point val="20.7115,7.31633"/>
      </dia:attribute>
      <dia:attribute name="obj_bb">
        <dia:rectangle val="20.6408,4.74796;23.3192,7.38704"/>
      </dia:attribute>
      <dia:attribute name="conn_endpoints">
        <dia:point val="20.7115,7.31633"/>
        <dia:point val="23.2485,4.81867"/>
      </dia:attribute>
      <dia:attribute name="numcp">
        <dia:int val="1"/>
      </dia:attribute>
      <dia:attribute name="start_arrow">
        <dia:enum val="3"/>
      </dia:attribute>
      <dia:attribute name="start_arrow_length">
        <dia:real val="0.5"/>
      </dia:attribute>
      <dia:attribute name="start_arrow_width">
        <dia:real val="0.5"/>
      </dia:attribute>
      <dia:attribute name="end_arrow">
        <dia:enum val="22"/>
      </dia:attribute>
      <dia:attribute name="end_arrow_length">
        <dia:real val="0.5"/>
      </dia:attribute>
      <dia:attribute name="end_arrow_width">
        <dia:real val="0.5"/>
      </dia:attribute>
      <dia:connections>
        <dia:connection handle="0" to="O1" connection="2"/>
        <dia:connection handle="1" to="O7" connection="5"/>
      </dia:connections>
    </dia:object>
    <dia:object type="Standard - Line" version="0" id="O28">
      <dia:attribute name="obj_pos">
        <dia:point val="15.32,3.295"/>
      </dia:attribute>
      <dia:attribute name="obj_bb">
        <dia:rectangle val="15.2582,2.85709;22.3106,3.61853"/>
      </dia:attribute>
      <dia:attribute name="conn_endpoints">
        <dia:point val="15.32,3.295"/>
        <dia:point val="22.26,3.21"/>
      </dia:attribute>
      <dia:attribute name="numcp">
        <dia:int val="1"/>
      </dia:attribute>
      <dia:attribute name="start_arrow">
        <dia:enum val="3"/>
      </dia:attribute>
      <dia:attribute name="start_arrow_length">
        <dia:real val="0.5"/>
      </dia:attribute>
      <dia:attribute name="start_arrow_width">
        <dia:real val="0.5"/>
      </dia:attribute>
      <dia:attribute name="end_arrow">
        <dia:enum val="22"/>
      </dia:attribute>
      <dia:attribute name="end_arrow_length">
        <dia:real val="0.5"/>
      </dia:attribute>
      <dia:attribute name="end_arrow_width">
        <dia:real val="0.5"/>
      </dia:attribute>
      <dia:connections>
        <dia:connection handle="0" to="O9" connection="4"/>
        <dia:connection handle="1" to="O7" connection="3"/>
      </dia:connections>
    </dia:object>
    <dia:object type="Standard - Line" version="0" id="O29">
      <dia:attribute name="obj_pos">
        <dia:point val="7.93311,8.5875"/>
      </dia:attribute>
      <dia:attribute name="obj_bb">
        <dia:rectangle val="7.87138,8.28581;15.0023,9.25162"/>
      </dia:attribute>
      <dia:attribute name="conn_endpoints">
        <dia:point val="7.93311,8.5875"/>
        <dia:point val="14.95,8.925"/>
      </dia:attribute>
      <dia:attribute name="numcp">
        <dia:int val="1"/>
      </dia:attribute>
      <dia:attribute name="start_arrow">
        <dia:enum val="3"/>
      </dia:attribute>
      <dia:attribute name="start_arrow_length">
        <dia:real val="0.5"/>
      </dia:attribute>
      <dia:attribute name="start_arrow_width">
        <dia:real val="0.5"/>
      </dia:attribute>
      <dia:attribute name="end_arrow">
        <dia:enum val="22"/>
      </dia:attribute>
      <dia:attribute name="end_arrow_length">
        <dia:real val="0.5"/>
      </dia:attribute>
      <dia:attribute name="end_arrow_width">
        <dia:real val="0.5"/>
      </dia:attribute>
      <dia:connections>
        <dia:connection handle="1" to="O1" connection="3"/>
      </dia:connections>
    </dia:object>
    <dia:object type="Standard - Line" version="0" id="O30">
      <dia:attribute name="obj_pos">
        <dia:point val="12.8515,19.4063"/>
      </dia:attribute>
      <dia:attribute name="obj_bb">
        <dia:rectangle val="12.7822,11.1307;18.3943,19.4756"/>
      </dia:attribute>
      <dia:attribute name="conn_endpoints">
        <dia:point val="12.8515,19.4063"/>
        <dia:point val="18.325,11.2"/>
      </dia:attribute>
      <dia:attribute name="numcp">
        <dia:int val="1"/>
      </dia:attribute>
      <dia:attribute name="start_arrow">
        <dia:enum val="3"/>
      </dia:attribute>
      <dia:attribute name="start_arrow_length">
        <dia:real val="0.5"/>
      </dia:attribute>
      <dia:attribute name="start_arrow_width">
        <dia:real val="0.5"/>
      </dia:attribute>
      <dia:attribute name="end_arrow">
        <dia:enum val="22"/>
      </dia:attribute>
      <dia:attribute name="end_arrow_length">
        <dia:real val="0.5"/>
      </dia:attribute>
      <dia:attribute name="end_arrow_width">
        <dia:real val="0.5"/>
      </dia:attribute>
      <dia:connections>
        <dia:connection handle="0" to="O13" connection="2"/>
        <dia:connection handle="1" to="O1" connection="6"/>
      </dia:connections>
    </dia:object>
    <dia:object type="Standard - Line" version="0" id="O31">
      <dia:attribute name="obj_pos">
        <dia:point val="7.8401,19.3875"/>
      </dia:attribute>
      <dia:attribute name="obj_bb">
        <dia:rectangle val="4.30912,10.67;7.93329,19.4525"/>
      </dia:attribute>
      <dia:attribute name="conn_endpoints">
        <dia:point val="7.8401,19.3875"/>
        <dia:point val="4.385,10.735"/>
      </dia:attribute>
      <dia:attribute name="numcp">
        <dia:int val="1"/>
      </dia:attribute>
      <dia:attribute name="start_arrow">
        <dia:enum val="3"/>
      </dia:attribute>
      <dia:attribute name="start_arrow_length">
        <dia:real val="0.5"/>
      </dia:attribute>
      <dia:attribute name="start_arrow_width">
        <dia:real val="0.5"/>
      </dia:attribute>
      <dia:attribute name="end_arrow">
        <dia:enum val="22"/>
      </dia:attribute>
      <dia:attribute name="end_arrow_length">
        <dia:real val="0.5"/>
      </dia:attribute>
      <dia:attribute name="end_arrow_width">
        <dia:real val="0.5"/>
      </dia:attribute>
      <dia:connections>
        <dia:connection handle="1" to="O3" connection="6"/>
      </dia:connections>
    </dia:object>
    <dia:object type="Standard - Line" version="0" id="O32">
      <dia:attribute name="obj_pos">
        <dia:point val="6.77149,6.85133"/>
      </dia:attribute>
      <dia:attribute name="obj_bb">
        <dia:rectangle val="6.70309,5.0691;9.77097,6.91973"/>
      </dia:attribute>
      <dia:attribute name="conn_endpoints">
        <dia:point val="6.77149,6.85133"/>
        <dia:point val="9.70257,5.1375"/>
      </dia:attribute>
      <dia:attribute name="numcp">
        <dia:int val="1"/>
      </dia:attribute>
      <dia:attribute name="line_style">
        <dia:enum val="4"/>
      </dia:attribute>
      <dia:attribute name="start_arrow">
        <dia:enum val="3"/>
      </dia:attribute>
      <dia:attribute name="start_arrow_length">
        <dia:real val="0.5"/>
      </dia:attribute>
      <dia:attribute name="start_arrow_width">
        <dia:real val="0.5"/>
      </dia:attribute>
      <dia:attribute name="end_arrow">
        <dia:enum val="22"/>
      </dia:attribute>
      <dia:attribute name="end_arrow_length">
        <dia:real val="0.5"/>
      </dia:attribute>
      <dia:attribute name="end_arrow_width">
        <dia:real val="0.5"/>
      </dia:attribute>
      <dia:connections>
        <dia:connection handle="0" to="O3" connection="2"/>
      </dia:connections>
    </dia:object>
    <dia:object type="Standard - Line" version="0" id="O33">
      <dia:attribute name="obj_pos">
        <dia:point val="4.385,6.185"/>
      </dia:attribute>
      <dia:attribute name="obj_bb">
        <dia:rectangle val="4.07601,0.0532247;4.9404,6.24676"/>
      </dia:attribute>
      <dia:attribute name="conn_endpoints">
        <dia:point val="4.385,6.185"/>
        <dia:point val="4.605,0.105"/>
      </dia:attribute>
      <dia:attribute name="numcp">
        <dia:int val="1"/>
      </dia:attribute>
      <dia:attribute name="start_arrow">
        <dia:enum val="3"/>
      </dia:attribute>
      <dia:attribute name="start_arrow_length">
        <dia:real val="0.5"/>
      </dia:attribute>
      <dia:attribute name="start_arrow_width">
        <dia:real val="0.5"/>
      </dia:attribute>
      <dia:attribute name="end_arrow">
        <dia:enum val="22"/>
      </dia:attribute>
      <dia:attribute name="end_arrow_length">
        <dia:real val="0.5"/>
      </dia:attribute>
      <dia:attribute name="end_arrow_width">
        <dia:real val="0.5"/>
      </dia:attribute>
      <dia:connections>
        <dia:connection handle="0" to="O3" connection="1"/>
        <dia:connection handle="1" to="O5" connection="6"/>
      </dia:connections>
    </dia:object>
    <dia:object type="Standard - Line" version="0" id="O34">
      <dia:attribute name="obj_pos">
        <dia:point val="1.99851,6.85133"/>
      </dia:attribute>
      <dia:attribute name="obj_bb">
        <dia:rectangle val="-3.90526,-0.542761;2.06877,6.92159"/>
      </dia:attribute>
      <dia:attribute name="conn_endpoints">
        <dia:point val="1.99851,6.85133"/>
        <dia:point val="-3.835,-0.4725"/>
      </dia:attribute>
      <dia:attribute name="numcp">
        <dia:int val="1"/>
      </dia:attribute>
      <dia:attribute name="line_style">
        <dia:enum val="4"/>
      </dia:attribute>
      <dia:attribute name="start_arrow">
        <dia:enum val="3"/>
      </dia:attribute>
      <dia:attribute name="start_arrow_length">
        <dia:real val="0.5"/>
      </dia:attribute>
      <dia:attribute name="start_arrow_width">
        <dia:real val="0.5"/>
      </dia:attribute>
      <dia:attribute name="end_arrow">
        <dia:enum val="22"/>
      </dia:attribute>
      <dia:attribute name="end_arrow_length">
        <dia:real val="0.5"/>
      </dia:attribute>
      <dia:attribute name="end_arrow_width">
        <dia:real val="0.5"/>
      </dia:attribute>
      <dia:connections>
        <dia:connection handle="0" to="O3" connection="0"/>
        <dia:connection handle="1" to="O21" connection="6"/>
      </dia:connections>
    </dia:object>
    <dia:object type="Standard - Line" version="0" id="O35">
      <dia:attribute name="obj_pos">
        <dia:point val="-9.34,5.385"/>
      </dia:attribute>
      <dia:attribute name="obj_bb">
        <dia:rectangle val="-9.40139,3.01951;8.62546,5.64413"/>
      </dia:attribute>
      <dia:attribute name="conn_endpoints">
        <dia:point val="-9.34,5.385"/>
        <dia:point val="8.57,3.295"/>
      </dia:attribute>
      <dia:attribute name="numcp">
        <dia:int val="1"/>
      </dia:attribute>
      <dia:attribute name="line_style">
        <dia:enum val="4"/>
      </dia:attribute>
      <dia:attribute name="start_arrow">
        <dia:enum val="3"/>
      </dia:attribute>
      <dia:attribute name="start_arrow_length">
        <dia:real val="0.5"/>
      </dia:attribute>
      <dia:attribute name="start_arrow_width">
        <dia:real val="0.5"/>
      </dia:attribute>
      <dia:attribute name="end_arrow">
        <dia:enum val="22"/>
      </dia:attribute>
      <dia:attribute name="end_arrow_length">
        <dia:real val="0.5"/>
      </dia:attribute>
      <dia:attribute name="end_arrow_width">
        <dia:real val="0.5"/>
      </dia:attribute>
      <dia:connections>
        <dia:connection handle="0" to="O23" connection="4"/>
        <dia:connection handle="1" to="O9" connection="3"/>
      </dia:connections>
    </dia:object>
    <dia:object type="Standard - Line" version="0" id="O36">
      <dia:attribute name="obj_pos">
        <dia:point val="0.182777,12.2174"/>
      </dia:attribute>
      <dia:attribute name="obj_bb">
        <dia:rectangle val="0.112315,9.99821;2.06898,12.2879"/>
      </dia:attribute>
      <dia:attribute name="conn_endpoints">
        <dia:point val="0.182777,12.2174"/>
        <dia:point val="1.99851,10.0687"/>
      </dia:attribute>
      <dia:attribute name="numcp">
        <dia:int val="1"/>
      </dia:attribute>
      <dia:attribute name="start_arrow">
        <dia:enum val="3"/>
      </dia:attribute>
      <dia:attribute name="start_arrow_length">
        <dia:real val="0.5"/>
      </dia:attribute>
      <dia:attribute name="start_arrow_width">
        <dia:real val="0.5"/>
      </dia:attribute>
      <dia:attribute name="end_arrow">
        <dia:enum val="22"/>
      </dia:attribute>
      <dia:attribute name="end_arrow_length">
        <dia:real val="0.5"/>
      </dia:attribute>
      <dia:attribute name="end_arrow_width">
        <dia:real val="0.5"/>
      </dia:attribute>
      <dia:connections>
        <dia:connection handle="0" to="O44" connection="8"/>
        <dia:connection handle="1" to="O3" connection="5"/>
      </dia:connections>
    </dia:object>
    <dia:object type="Standard - Line" version="0" id="O37">
      <dia:attribute name="obj_pos">
        <dia:point val="18.105,20.8325"/>
      </dia:attribute>
      <dia:attribute name="obj_bb">
        <dia:rectangle val="13.7879,20.5276;18.1667,21.3455"/>
      </dia:attribute>
      <dia:attribute name="conn_endpoints">
        <dia:point val="18.105,20.8325"/>
        <dia:point val="13.84,21.015"/>
      </dia:attribute>
      <dia:attribute name="numcp">
        <dia:int val="1"/>
      </dia:attribute>
      <dia:attribute name="start_arrow">
        <dia:enum val="3"/>
      </dia:attribute>
      <dia:attribute name="start_arrow_length">
        <dia:real val="0.5"/>
      </dia:attribute>
      <dia:attribute name="start_arrow_width">
        <dia:real val="0.5"/>
      </dia:attribute>
      <dia:attribute name="end_arrow">
        <dia:enum val="22"/>
      </dia:attribute>
      <dia:attribute name="end_arrow_length">
        <dia:real val="0.5"/>
      </dia:attribute>
      <dia:attribute name="end_arrow_width">
        <dia:real val="0.5"/>
      </dia:attribute>
      <dia:connections>
        <dia:connection handle="0" to="O47" connection="3"/>
        <dia:connection handle="1" to="O13" connection="4"/>
      </dia:connections>
    </dia:object>
    <dia:object type="Standard - Line" version="0" id="O38">
      <dia:attribute name="obj_pos">
        <dia:point val="-10.545,19.4925"/>
      </dia:attribute>
      <dia:attribute name="obj_bb">
        <dia:rectangle val="-10.7458,-1.19802;-6.01579,19.553"/>
      </dia:attribute>
      <dia:attribute name="conn_endpoints">
        <dia:point val="-10.545,19.4925"/>
        <dia:point val="-6.22149,-1.13883"/>
      </dia:attribute>
      <dia:attribute name="numcp">
        <dia:int val="1"/>
      </dia:attribute>
      <dia:attribute name="start_arrow">
        <dia:enum val="3"/>
      </dia:attribute>
      <dia:attribute name="start_arrow_length">
        <dia:real val="0.5"/>
      </dia:attribute>
      <dia:attribute name="start_arrow_width">
        <dia:real val="0.5"/>
      </dia:attribute>
      <dia:attribute name="end_arrow">
        <dia:enum val="22"/>
      </dia:attribute>
      <dia:attribute name="end_arrow_length">
        <dia:real val="0.5"/>
      </dia:attribute>
      <dia:attribute name="end_arrow_width">
        <dia:real val="0.5"/>
      </dia:attribute>
      <dia:connections>
        <dia:connection handle="0" to="O17" connection="1"/>
        <dia:connection handle="1" to="O21" connection="5"/>
      </dia:connections>
    </dia:object>
    <dia:object type="Standard - Line" version="0" id="O39">
      <dia:attribute name="obj_pos">
        <dia:point val="14.9701,9.3875"/>
      </dia:attribute>
      <dia:attribute name="obj_bb">
        <dia:rectangle val="-7.23804,9.31946;15.0381,21.8355"/>
      </dia:attribute>
      <dia:attribute name="conn_endpoints">
        <dia:point val="14.9701,9.3875"/>
        <dia:point val="-7.17,21.7675"/>
      </dia:attribute>
      <dia:attribute name="numcp">
        <dia:int val="1"/>
      </dia:attribute>
      <dia:attribute name="start_arrow">
        <dia:enum val="3"/>
      </dia:attribute>
      <dia:attribute name="start_arrow_length">
        <dia:real val="0.5"/>
      </dia:attribute>
      <dia:attribute name="start_arrow_width">
        <dia:real val="0.5"/>
      </dia:attribute>
      <dia:attribute name="end_arrow">
        <dia:enum val="22"/>
      </dia:attribute>
      <dia:attribute name="end_arrow_length">
        <dia:real val="0.5"/>
      </dia:attribute>
      <dia:attribute name="end_arrow_width">
        <dia:real val="0.5"/>
      </dia:attribute>
      <dia:connections>
        <dia:connection handle="1" to="O17" connection="4"/>
      </dia:connections>
    </dia:object>
    <dia:object type="Standard - Line" version="0" id="O40">
      <dia:attribute name="obj_pos">
        <dia:point val="-9.30713,19.6019"/>
      </dia:attribute>
      <dia:attribute name="obj_bb">
        <dia:rectangle val="-9.37535,-0.629554;2.28673,19.6702"/>
      </dia:attribute>
      <dia:attribute name="conn_endpoints">
        <dia:point val="-9.30713,19.6019"/>
        <dia:point val="2.21851,-0.561332"/>
      </dia:attribute>
      <dia:attribute name="numcp">
        <dia:int val="1"/>
      </dia:attribute>
      <dia:attribute name="start_arrow">
        <dia:enum val="3"/>
      </dia:attribute>
      <dia:attribute name="start_arrow_length">
        <dia:real val="0.5"/>
      </dia:attribute>
      <dia:attribute name="start_arrow_width">
        <dia:real val="0.5"/>
      </dia:attribute>
      <dia:attribute name="end_arrow">
        <dia:enum val="22"/>
      </dia:attribute>
      <dia:attribute name="end_arrow_length">
        <dia:real val="0.5"/>
      </dia:attribute>
      <dia:attribute name="end_arrow_width">
        <dia:real val="0.5"/>
      </dia:attribute>
      <dia:connections>
        <dia:connection handle="0" to="O17" connection="8"/>
        <dia:connection handle="1" to="O5" connection="5"/>
      </dia:connections>
    </dia:object>
    <dia:object type="Standard - Line" version="0" id="O41">
      <dia:attribute name="obj_pos">
        <dia:point val="-12.9315,20.1588"/>
      </dia:attribute>
      <dia:attribute name="obj_bb">
        <dia:rectangle val="-13.2519,7.60914;-12.3658,20.2206"/>
      </dia:attribute>
      <dia:attribute name="conn_endpoints">
        <dia:point val="-12.9315,20.1588"/>
        <dia:point val="-12.715,7.66"/>
      </dia:attribute>
      <dia:attribute name="numcp">
        <dia:int val="1"/>
      </dia:attribute>
      <dia:attribute name="start_arrow">
        <dia:enum val="3"/>
      </dia:attribute>
      <dia:attribute name="start_arrow_length">
        <dia:real val="0.5"/>
      </dia:attribute>
      <dia:attribute name="start_arrow_width">
        <dia:real val="0.5"/>
      </dia:attribute>
      <dia:attribute name="end_arrow">
        <dia:enum val="22"/>
      </dia:attribute>
      <dia:attribute name="end_arrow_length">
        <dia:real val="0.5"/>
      </dia:attribute>
      <dia:attribute name="end_arrow_width">
        <dia:real val="0.5"/>
      </dia:attribute>
      <dia:connections>
        <dia:connection handle="0" to="O17" connection="0"/>
        <dia:connection handle="1" to="O23" connection="6"/>
      </dia:connections>
    </dia:object>
    <dia:object type="Standard - Line" version="0" id="O42">
      <dia:attribute name="obj_pos">
        <dia:point val="25.5,10.6"/>
      </dia:attribute>
      <dia:attribute name="obj_bb">
        <dia:rectangle val="20.6608,10.1819;25.5618,10.9226"/>
      </dia:attribute>
      <dia:attribute name="conn_endpoints">
        <dia:point val="25.5,10.6"/>
        <dia:point val="20.7115,10.5337"/>
      </dia:attribute>
      <dia:attribute name="numcp">
        <dia:int val="1"/>
      </dia:attribute>
      <dia:attribute name="start_arrow">
        <dia:enum val="3"/>
      </dia:attribute>
      <dia:attribute name="start_arrow_length">
        <dia:real val="0.5"/>
      </dia:attribute>
      <dia:attribute name="start_arrow_width">
        <dia:real val="0.5"/>
      </dia:attribute>
      <dia:attribute name="end_arrow">
        <dia:enum val="22"/>
      </dia:attribute>
      <dia:attribute name="end_arrow_length">
        <dia:real val="0.5"/>
      </dia:attribute>
      <dia:attribute name="end_arrow_width">
        <dia:real val="0.5"/>
      </dia:attribute>
      <dia:connections>
        <dia:connection handle="0" to="O15" connection="3"/>
        <dia:connection handle="1" to="O1" connection="7"/>
      </dia:connections>
    </dia:object>
    <dia:object type="Standard - Line" version="0" id="O43">
      <dia:attribute name="obj_pos">
        <dia:point val="28.875,8.325"/>
      </dia:attribute>
      <dia:attribute name="obj_bb">
        <dia:rectangle val="27.8411,4.75826;29.0546,8.38541"/>
      </dia:attribute>
      <dia:attribute name="conn_endpoints">
        <dia:point val="28.875,8.325"/>
        <dia:point val="28.0215,4.81867"/>
      </dia:attribute>
      <dia:attribute name="numcp">
        <dia:int val="1"/>
      </dia:attribute>
      <dia:attribute name="start_arrow">
        <dia:enum val="3"/>
      </dia:attribute>
      <dia:attribute name="start_arrow_length">
        <dia:real val="0.5"/>
      </dia:attribute>
      <dia:attribute name="start_arrow_width">
        <dia:real val="0.5"/>
      </dia:attribute>
      <dia:attribute name="end_arrow">
        <dia:enum val="22"/>
      </dia:attribute>
      <dia:attribute name="end_arrow_length">
        <dia:real val="0.5"/>
      </dia:attribute>
      <dia:attribute name="end_arrow_width">
        <dia:real val="0.5"/>
      </dia:attribute>
      <dia:connections>
        <dia:connection handle="0" to="O15" connection="1"/>
        <dia:connection handle="1" to="O7" connection="7"/>
      </dia:connections>
    </dia:object>
    <dia:group>
      <dia:attribute name="meta">
        <dia:composite type="dict"/>
      </dia:attribute>
      <dia:attribute name="matrix"/>
      <dia:object type="Standard - Ellipse" version="0" id="O44">
        <dia:attribute name="obj_pos">
          <dia:point val="-4.895,11.9575"/>
        </dia:attribute>
        <dia:attribute name="obj_bb">
          <dia:rectangle val="-4.945,11.9075;1.905,16.5575"/>
        </dia:attribute>
        <dia:attribute name="elem_corner">
          <dia:point val="-4.895,11.9575"/>
        </dia:attribute>
        <dia:attribute name="elem_width">
          <dia:real val="6.75"/>
        </dia:attribute>
        <dia:attribute name="elem_height">
          <dia:real val="4.5500000000000043"/>
        </dia:attribute>
      </dia:object>
      <dia:object type="Standard - Text" version="1" id="O45">
        <dia:attribute name="obj_pos">
          <dia:point val="-2.47,14.3825"/>
        </dia:attribute>
        <dia:attribute name="obj_bb">
          <dia:rectangle val="-2.47,13.6975;-0.73,15.3725"/>
        </dia:attribute>
        <dia:attribute name="text">
          <dia:composite type="text">
            <dia:attribute name="string">
              <dia:string>#CCHD
#</dia:string>
            </dia:attribute>
            <dia:attribute name="font">
              <dia:font family="sans" style="0" name="Helvetica"/>
            </dia:attribute>
            <dia:attribute name="height">
              <dia:real val="0.80000000000000004"/>
            </dia:attribute>
            <dia:attribute name="pos">
              <dia:point val="-2.47,14.3825"/>
            </dia:attribute>
            <dia:attribute name="color">
              <dia:color val="#000000ff"/>
            </dia:attribute>
            <dia:attribute name="alignment">
              <dia:enum val="0"/>
            </dia:attribute>
          </dia:composite>
        </dia:attribute>
        <dia:attribute name="valign">
          <dia:enum val="3"/>
        </dia:attribute>
      </dia:object>
      <dia:object type="Standard - Text" version="1" id="O46">
        <dia:attribute name="obj_pos">
          <dia:point val="-2.29,14.2775"/>
        </dia:attribute>
        <dia:attribute name="obj_bb">
          <dia:rectangle val="-2.29,13.5925;-2.29,14.4675"/>
        </dia:attribute>
        <dia:attribute name="text">
          <dia:composite type="text">
            <dia:attribute name="string">
              <dia:string>##</dia:string>
            </dia:attribute>
            <dia:attribute name="font">
              <dia:font family="sans" style="0" name="Helvetica"/>
            </dia:attribute>
            <dia:attribute name="height">
              <dia:real val="0.80000000000000004"/>
            </dia:attribute>
            <dia:attribute name="pos">
              <dia:point val="-2.29,14.2775"/>
            </dia:attribute>
            <dia:attribute name="color">
              <dia:color val="#000000ff"/>
            </dia:attribute>
            <dia:attribute name="alignment">
              <dia:enum val="0"/>
            </dia:attribute>
          </dia:composite>
        </dia:attribute>
        <dia:attribute name="valign">
          <dia:enum val="3"/>
        </dia:attribute>
      </dia:object>
    </dia:group>
    <dia:group>
      <dia:attribute name="meta">
        <dia:composite type="dict"/>
      </dia:attribute>
      <dia:attribute name="matrix"/>
      <dia:object type="Standard - Ellipse" version="0" id="O47">
        <dia:attribute name="obj_pos">
          <dia:point val="18.105,18.5575"/>
        </dia:attribute>
        <dia:attribute name="obj_bb">
          <dia:rectangle val="18.055,18.5075;24.905,23.1575"/>
        </dia:attribute>
        <dia:attribute name="elem_corner">
          <dia:point val="18.105,18.5575"/>
        </dia:attribute>
        <dia:attribute name="elem_width">
          <dia:real val="6.75"/>
        </dia:attribute>
        <dia:attribute name="elem_height">
          <dia:real val="4.5500000000000043"/>
        </dia:attribute>
      </dia:object>
      <dia:object type="Standard - Text" version="1" id="O48">
        <dia:attribute name="obj_pos">
          <dia:point val="18.43,21.0325"/>
        </dia:attribute>
        <dia:attribute name="obj_bb">
          <dia:rectangle val="18.43,20.3475;24.545,22.0225"/>
        </dia:attribute>
        <dia:attribute name="text">
          <dia:composite type="text">
            <dia:attribute name="string">
              <dia:string>#Next System Studies
#</dia:string>
            </dia:attribute>
            <dia:attribute name="font">
              <dia:font family="sans" style="0" name="Helvetica"/>
            </dia:attribute>
            <dia:attribute name="height">
              <dia:real val="0.80000000000000004"/>
            </dia:attribute>
            <dia:attribute name="pos">
              <dia:point val="18.43,21.0325"/>
            </dia:attribute>
            <dia:attribute name="color">
              <dia:color val="#000000ff"/>
            </dia:attribute>
            <dia:attribute name="alignment">
              <dia:enum val="0"/>
            </dia:attribute>
          </dia:composite>
        </dia:attribute>
        <dia:attribute name="valign">
          <dia:enum val="3"/>
        </dia:attribute>
      </dia:object>
      <dia:object type="Standard - Text" version="1" id="O49">
        <dia:attribute name="obj_pos">
          <dia:point val="20.71,20.8775"/>
        </dia:attribute>
        <dia:attribute name="obj_bb">
          <dia:rectangle val="20.71,20.1925;20.71,21.0675"/>
        </dia:attribute>
        <dia:attribute name="text">
          <dia:composite type="text">
            <dia:attribute name="string">
              <dia:string>##</dia:string>
            </dia:attribute>
            <dia:attribute name="font">
              <dia:font family="sans" style="0" name="Helvetica"/>
            </dia:attribute>
            <dia:attribute name="height">
              <dia:real val="0.80000000000000004"/>
            </dia:attribute>
            <dia:attribute name="pos">
              <dia:point val="20.71,20.8775"/>
            </dia:attribute>
            <dia:attribute name="color">
              <dia:color val="#000000ff"/>
            </dia:attribute>
            <dia:attribute name="alignment">
              <dia:enum val="0"/>
            </dia:attribute>
          </dia:composite>
        </dia:attribute>
        <dia:attribute name="valign">
          <dia:enum val="3"/>
        </dia:attribute>
      </dia:object>
      <dia:object type="Standard - Text" version="1" id="O50">
        <dia:attribute name="obj_pos">
          <dia:point val="21.21,20.6775"/>
        </dia:attribute>
        <dia:attribute name="obj_bb">
          <dia:rectangle val="21.21,19.9925;21.21,20.8675"/>
        </dia:attribute>
        <dia:attribute name="text">
          <dia:composite type="text">
            <dia:attribute name="string">
              <dia:string>##</dia:string>
            </dia:attribute>
            <dia:attribute name="font">
              <dia:font family="sans" style="0" name="Helvetica"/>
            </dia:attribute>
            <dia:attribute name="height">
              <dia:real val="0.80000000000000004"/>
            </dia:attribute>
            <dia:attribute name="pos">
              <dia:point val="21.21,20.6775"/>
            </dia:attribute>
            <dia:attribute name="color">
              <dia:color val="#000000ff"/>
            </dia:attribute>
            <dia:attribute name="alignment">
              <dia:enum val="0"/>
            </dia:attribute>
          </dia:composite>
        </dia:attribute>
        <dia:attribute name="valign">
          <dia:enum val="3"/>
        </dia:attribute>
      </dia:object>
    </dia:group>
    <dia:object type="Standard - Line" version="0" id="O51">
      <dia:attribute name="obj_pos">
        <dia:point val="-8.15851,20.1588"/>
      </dia:attribute>
      <dia:attribute name="obj_bb">
        <dia:rectangle val="-8.22922,15.7705;-3.83578,20.2295"/>
      </dia:attribute>
      <dia:attribute name="conn_endpoints">
        <dia:point val="-8.15851,20.1588"/>
        <dia:point val="-3.90649,15.8412"/>
      </dia:attribute>
      <dia:attribute name="numcp">
        <dia:int val="1"/>
      </dia:attribute>
      <dia:attribute name="start_arrow">
        <dia:enum val="3"/>
      </dia:attribute>
      <dia:attribute name="start_arrow_length">
        <dia:real val="0.5"/>
      </dia:attribute>
      <dia:attribute name="start_arrow_width">
        <dia:real val="0.5"/>
      </dia:attribute>
      <dia:attribute name="end_arrow">
        <dia:enum val="22"/>
      </dia:attribute>
      <dia:attribute name="end_arrow_length">
        <dia:real val="0.5"/>
      </dia:attribute>
      <dia:attribute name="end_arrow_width">
        <dia:real val="0.5"/>
      </dia:attribute>
      <dia:connections>
        <dia:connection handle="0" to="O17" connection="2"/>
        <dia:connection handle="1" to="O44" connection="5"/>
      </dia:connections>
    </dia:object>
    <dia:object type="Standard - Line" version="0" id="O52">
      <dia:attribute name="obj_pos">
        <dia:point val="27.77,20.7825"/>
      </dia:attribute>
      <dia:attribute name="obj_bb">
        <dia:rectangle val="24.8041,20.4583;27.8318,21.1818"/>
      </dia:attribute>
      <dia:attribute name="conn_endpoints">
        <dia:point val="27.77,20.7825"/>
        <dia:point val="24.855,20.8325"/>
      </dia:attribute>
      <dia:attribute name="numcp">
        <dia:int val="1"/>
      </dia:attribute>
      <dia:attribute name="start_arrow">
        <dia:enum val="3"/>
      </dia:attribute>
      <dia:attribute name="start_arrow_length">
        <dia:real val="0.5"/>
      </dia:attribute>
      <dia:attribute name="start_arrow_width">
        <dia:real val="0.5"/>
      </dia:attribute>
      <dia:attribute name="end_arrow">
        <dia:enum val="22"/>
      </dia:attribute>
      <dia:attribute name="end_arrow_length">
        <dia:real val="0.5"/>
      </dia:attribute>
      <dia:attribute name="end_arrow_width">
        <dia:real val="0.5"/>
      </dia:attribute>
      <dia:connections>
        <dia:connection handle="0" to="O19" connection="3"/>
        <dia:connection handle="1" to="O47" connection="4"/>
      </dia:connections>
    </dia:object>
  </dia:layer>
</dia:diagram>
